No,Account,"Order Code","Product Code","Product Name","Customer Name",Mobile-Phone,Email,Country,Province,City,Area,"Zip Code",Address,"Order Quantity","Logistic Company","Tracking Code","Shipping Cost",Price,"Coupon Code","Value Coupon","Payment Method",Total,Status,Date
1,SHOPBAY.ID,#SB100108,,"I7 TWS HEADSET BLUETOOTH WIRELESS","Teja Sungkawa",08122123164,teja140186@gmail.com,IDN,"JAWA BARAT","KABUPATEN BANDUNG","Kec. BALEENDAH",40375,"Jl. Adipati Agung No. 91 Kel. Baleendah",1,jnt,,20000.00,297000.00,,0.00,cod,317000,wait-payment,"28-01-2019 08:45"
2,SHOPBAY.ID,#SB100107,,"I7 TWS HEADSET BLUETOOTH WIRELESS",Ibrahim,085398807237,ktl_ibrahim@yahoo.com,IDN,"SULAWESI TENGGARA","KABUPATEN MUNA","Kec. KATOBU",93611,"Jalan Kantolalo",1,jnt,,20000.00,297000.00,FREEONGKIR,20000.00,cod,297000,wait-payment,"28-01-2019 08:41"
3,SHOPBAY.ID,#SB100106,,"I7 TWS HEADSET BLUETOOTH WIRELESS","Yudi irwansyah toha",085263007555,yudiirwansyahtoha@gmail.com,IDN,"SUMATERA UTARA","KOTA MEDAN","Kec. MEDAN LABUHAN",20251,"Jln. KL yos sudarso km 13.5 no 25 lk II ",1,jne,,20000.00,297000.00,,0.00,cod,317000,wait-payment,"27-01-2019 15:26"
4,SHOPBAY.ID,#SB100105,,"I7 TWS HEADSET BLUETOOTH WIRELESS","Tsaqila Muvidah Halimah",08129129747,Tsaqilahalimah@gmail.com,IDN,"JAWA BARAT","KOTA BEKASI","Kec. JATISAMPURNA",17435,"Citra Gran Cibubur Blok G 1 no 15, Central Garden Bulevard",1,jne,,20000.00,297000.00,,0.00,cod,317000,wait-payment,"27-01-2019 14:08"
5,SHOPBAY.ID,#SB100104,,"I7 TWS HEADSET BLUETOOTH WIRELESS","ahmad maryadi",0811937228,project5depok@gmail.com,IDN,"KALIMANTAN TIMUR","KOTA SAMARINDA","Kec. SAMARINDA ULU",75123,"	Jl. Aw Syahrani, Gg. 3B No.1, Air Hitam, Samarinda Ulu, Kota Samarinda, Kalimantan Timur 75123",1,jne,,20000.00,297000.00,,0.00,transfer,317000,wait-payment,"27-01-2019 08:15"
6,SHOPBAY.ID,#SB100103,,"I7 TWS HEADSET BLUETOOTH WIRELESS",Taufiq,082252200275,jibunkatu@gmail.com,IDN,"KALIMANTAN SELATAN","KOTA BANJARMASIN","Kec. BANJARMASIN TIMUR",7024,"Jl. Pramuka komp. Tirta dharma . Dinas kesehatan kota Banjarmasin",1,jnt,,20000.00,297000.00,,0.00,cod,317000,wait-payment,"26-01-2019 16:22"
7,SHOPBAY.ID,#SB100102,,"I7 TWS HEADSET BLUETOOTH WIRELESS","Umar hadi",081325142631,Owner.bajoe@gmail.com,IDN,"KALIMANTAN TIMUR","KABUPATEN BERAU","Kec.  TANJUNG REDEB",77311,"Pesantren hidayatullah, Jl. P. HIDAYATULLAH ",1,jne,,20000.00,297000.00,,0.00,cod,317000,wait-payment,"26-01-2019 10:40"
8,SHOPBAY.ID,#SB100101,,"I7 TWS HEADSET BLUETOOTH WIRELESS","Olprine pangalasen",081244969032,mateipangalasen@gmail.com,IDN,"SULAWESI UTARA","KABUPATEN KEPULAUAN TALAUD","Kec. KABARUAN",95872,"Dusun II DESA PANGERAN ",1,jne,,20000.00,297000.00,,0.00,cod,317000,wait-payment,"25-01-2019 21:16"
9,SHOPBAY.ID,#SB100100,,"I7 TWS HEADSET BLUETOOTH WIRELESS","Foreman Hutasoit",085360821883,foremanhutasoit@gmail.com,IDN,"SUMATERA UTARA","KABUPATEN TAPANULI UTARA","Kec. SIBORONG - BORONG",22474,"Jln.sisingamangaraja no.102, disamping bank sumut siborongborong. ",1,jnt,,20000.00,297000.00,,0.00,cod,317000,wait-payment,"25-01-2019 16:04"
10,SHOPBAY.ID,#SB100099,,"I7 TWS HEADSET BLUETOOTH WIRELESS",Henderiwijaya,089643506224,Hendriwikaya778@gmail.com,IDN,"DKI JAKARTA","KOTA JAKARTA BARAT","Kec. KALI DERES",11830,"Jl.satu maret No7 pegadungan kalideres",1,jne,,20000.00,297000.00,,0.00,cod,317000,wait-payment,"25-01-2019 14:41"
11,SHOPBAY.ID,#SB100098,,"I7 TWS HEADSET BLUETOOTH WIRELESS","Tresa ",081222006922,wirantonoagus@yahoo.com,IDN,"JAWA TIMUR","KOTA SURABAYA","Kec. Rungkut",60296,"Wonorejo Permai VIII / 46",1,jne,,20000.00,297000.00,,0.00,cod,317000,wait-payment,"25-01-2019 13:15"
12,SHOPBAY.ID,#SB100097,,"I7 TWS HEADSET BLUETOOTH WIRELESS",andimangunsong,081918773436,andimangunsong666@gmail.com,IDN,"SUMATERA UTARA","KOTA MEDAN","Kec. MEDAN BARAT",20116,"jl pajak karya",1,jne,,20000.00,297000.00,,0.00,cod,317000,wait-payment,"25-01-2019 11:32"
13,SHOPBAY.ID,#SB100096,,"I7 TWS HEADSET BLUETOOTH WIRELESS","BAYU RAHMAWIJAYA DWIKUSUMA",082290211594,bayurahmawijaya@gmail.com,IDN,"SULAWESI TENGGARA","KABUPATEN KONAWE SELATAN","Kec. PALANGGA",93383,"Dusun bangun sari, desa Mekarsari kec. Palangga",1,jnt,,20000.00,297000.00,,0.00,cod,317000,wait-payment,"25-01-2019 10:34"
14,SHOPBAY.ID,#SB100095,,"I7 TWS HEADSET BLUETOOTH WIRELESS","Zainul Arisi",085934546302,enolengko@gmail.com,IDN,"NUSA TENGGARA BARAT","KABUPATEN LOMBOK TIMUR","Kec. PRINGGABAYA",83651,"Dasan tapen,desa telaga waru,kecamatan pringgabaya",1,jne,,20000.00,297000.00,,0.00,cod,317000,wait-payment,"25-01-2019 07:25"
15,SHOPBAY.ID,#SB100094,,"I7 TWS HEADSET BLUETOOTH WIRELESS","Rohmat kholis",081288183400,rohmatkholis.01@gmail.com,IDN,"DKI JAKARTA","KOTA JAKARTA TIMUR","Kec. DUREN SAWIT",13470,"YAYASAN NURUL IHSAN , Jl. I gustingurahrai buaran 1 RT 7/12 kel. Klender",1,jne,,20000.00,297000.00,,0.00,cod,317000,wait-payment,"25-01-2019 07:25"
16,SHOPBAY.ID,#SB100093,,"I7 TWS HEADSET BLUETOOTH WIRELESS","Abu Zed ",081517222222,abuzed@istiqamah.id,IDN,"SULAWESI SELATAN","KABUPATEN MAROS","Kec. MANDAI",90552,"Pesantren darul istiqamah pusat",1,jnt,,20000.00,297000.00,,0.00,cod,317000,wait-payment,"25-01-2019 04:34"
17,SHOPBAY.ID,#SB100092,,"I7 TWS HEADSET BLUETOOTH WIRELESS","Hanica Ayunia",089694861588,Hanicaayunia1@gmail.com,IDN,"SULAWESI UTARA","KOTA MANADO","Kec. MAPANGET",95252,"Perumahan Griya Paniki Indah Jl Bougenville 2 No 3",1,jnt,,20000.00,297000.00,FREEONGKIR,20000.00,cod,297000,wait-payment,"24-01-2019 20:45"
18,SHOPBAY.ID,#SB100091,,"I7 TWS HEADSET BLUETOOTH WIRELESS","Muslim baharudin",+6281266966804,Baharudin1519@gmail.com,IDN,"KEPULAUAN RIAU","KOTA B A T A M","Kec. Sagulung",29424,"Perum:BATU AJI RIAU BERTUAH TAHAP 1,Block i No 16",1,jne,,20000.00,297000.00,,0.00,cod,317000,wait-payment,"24-01-2019 19:06"
19,SHOPBAY.ID,#SB100090,,"I7 TWS HEADSET BLUETOOTH WIRELESS",testing,02312321,test@yahoo.com,IDN,RIAU,"KABUPATEN PELALAWAN","Kec. BUNUT",10234,"Jl Aja",1,jne,,20000.00,297000.00,,0.00,cod,317000,wait-payment,"24-01-2019 18:31"
20,SHOPBAY.ID,#SB100089,,"I7 TWS HEADSET BLUETOOTH WIRELESS",ssdsds,123232322,wds@gmail.com,IDN,"DI YOGYAKARTA","KABUPATEN KULON PROGO","Kec. WATES",12122,dsdsSDsd,1,jne,,20000.00,297000.00,,0.00,cod,317000,wait-payment,"24-01-2019 16:14"
21,SHOPBAY.ID,#SB100088,,"I7 TWS HEADSET BLUETOOTH WIRELESS","Risky Yohanes Ligouw",082188383570,yohanesmozartligouw@yahoo.co.id,IDN,"SULAWESI UTARA","KABUPATEN MINAHASA","Kec. PINELENG",95662,"Perumahana pineleng permai blok A no 1",1,jne,,20000.00,297000.00,,0.00,cod,317000,wait-payment,"24-01-2019 14:11"
22,SHOPBAY.ID,#SB100087,,"I7 TWS HEADSET BLUETOOTH WIRELESS","I Made Yogi Adi Nugraha",083117933097,Kadek.sidii@gmail.com,IDN,BALI,"KABUPATEN TABANAN","Kec. KEDIRI",82121,"Perumahan Griya Mulya Asri, pandak kebon",1,jne,,20000.00,297000.00,,0.00,transfer,317000,wait-payment,"24-01-2019 11:28"
23,SHOPBAY.ID,#SB100086,,"I7 TWS HEADSET BLUETOOTH WIRELESS","Koresh Kelelufna",081316228519,chorez_vhier85@yahoo.com,IDN,"PAPUA BARAT","KABUPATEN RAJA AMPAT","Kec. WAIGEO SELATAN",98482,"Waisai,komplek PSG, Kelurahan Warmasen",1,jne,,20000.00,297000.00,,0.00,cod,317000,wait-payment,"24-01-2019 10:38"
24,SHOPBAY.ID,#SB100085,,"I7 TWS HEADSET BLUETOOTH WIRELESS","Abdul aziz h e",085394928903,abdulazizoase@gmail.com,IDN,"SULAWESI TENGAH","KOTA PALU","Kec. PALU TIMUR",94114,"Jln setia budi no 9 lorong gapensi",1,jnt,,20000.00,297000.00,,0.00,cod,317000,wait-payment,"23-01-2019 19:11"
25,SHOPBAY.ID,#SB100084,,"I7 TWS HEADSET BLUETOOTH WIRELESS",Tust,0832424213,testus@yahoo.com,IDN,"DKI JAKARTA","KOTA JAKARTA TIMUR","Kec. CIPAYUNG",11470,"Jl. Testus",1,jne,,8000.00,297000.00,FREEONGKIR,20000.00,cod,285000,wait-payment,"23-01-2019 16:58"
26,SHOPBAY.ID,#SB100083,,"I7 TWS HEADSET BLUETOOTH WIRELESS",Test,08766342342,test@yahoo.com,IDN,"SUMATERA BARAT","KABUPATEN SOLOK","Kec. BUKIT SUNDI",19283,"Jl. Jilin",1,jne,,39000.00,297000.00,FREEONGKIR,20000.00,cod,316000,wait-payment,"23-01-2019 16:54"
27,SHOPBAY.ID,#SB100082,,"I7 TWS HEADSET BLUETOOTH WIRELESS","Michael Hadiyanto",0811843429,michael_hadiyanto@yahoo.com,IDN,"DKI JAKARTA","KOTA JAKARTA SELATAN","Kec. PASAR MINGGU",12520,"Cipta Bangun Jaya, jl. Ragunan no 51 pasar minggu. Dpn PD Pasar Jaya. Deretan polsek pasar minggu",1,jne,,8000.00,297000.00,,0.00,cod,305000,wait-payment,"22-01-2019 15:05"
28,SHOPBAY.ID,#SB100081,,"I7 TWS HEADSET BLUETOOTH WIRELESS",Rofi'uddin,087788363860,Ofik186lh@gmail.com,IDN,"DKI JAKARTA","KOTA JAKARTA PUSAT","Kec. GAMBIR",10110,"Lenggang jakarta",1,jne,,8000.00,297000.00,,0.00,cod,305000,wait-payment,"22-01-2019 13:08"
29,SHOPBAY.ID,#SB100080,,"I7 TWS HEADSET BLUETOOTH WIRELESS","Imam fausi",083853144441,Fauzidrt15@gmail.com,IDN,"JAWA TIMUR","KABUPATEN BANGKALAN","Kec. Socah",69161,"Dsn jaddih selatan 02",1,jnt,,30000.00,297000.00,,0.00,cod,327000,wait-payment,"22-01-2019 12:24"
30,SHOPBAY.ID,#SB100079,,"I7 TWS HEADSET BLUETOOTH WIRELESS",Imron,085363220000,Imronmanwar19@gmail.com,IDN,"SUMATERA SELATAN","KABUPATEN OGAN KOMERING ULU TIMUR","Kec. MADANG SUKU   I",32162,"Desa Rasuan Rt 01 Rw 05 ",1,jnt,,30000.00,297000.00,,0.00,cod,327000,wait-payment,"21-01-2019 23:17"
31,SHOPBAY.ID,#SB100078,,"I7 TWS HEADSET BLUETOOTH WIRELESS",Syela,081212906003,Syela.mantiri@yahoo.com,IDN,BANTEN,"KOTA TANGERANG","Kec. TANGERANG",15810,"Cluster Sapphire Jl. Kintamani Golf 13 no.10 PHG sumarecon gading serpong",1,jne,,8000.00,297000.00,,0.00,cod,305000,wait-payment,"21-01-2019 19:54"
32,SHOPBAY.ID,#SB100077,,"I7 TWS HEADSET BLUETOOTH WIRELESS","Said juttar",082291459262,Zhaid02.mmm@gmail.com,IDN,"SULAWESI SELATAN","KABUPATEN BULUKUMBA","Kec. KAJANG",92574,"Desa bontorannu kec kajang",1,jnt,,30000.00,297000.00,,0.00,transfer,327000,wait-payment,"21-01-2019 18:12"
33,SHOPBAY.ID,#SB100076,,"I7 TWS HEADSET BLUETOOTH WIRELESS",Ariani,081233349707,They.qni01@gmail.com,IDN,BALI,"KABUPATEN BADUNG","Kec. KUTA SELATAN",80363,"Jalan Pratama 77 Tanjung Benoa coconut resto depan Taman bagawan ",1,jne,,19000.00,297000.00,,0.00,cod,316000,wait-payment,"21-01-2019 16:06"
34,SHOPBAY.ID,#SB100075,,"I7 TWS HEADSET BLUETOOTH WIRELESS","Nuzulul Furqon",081217897291,furqonnuzulul24@gmail.com,IDN,"JAWA TIMUR","KABUPATEN BANGKALAN","Kec. Bangkalan",69112,"Jl.raya bancaran kamp.leban rt02/rw07",1,jne,,21000.00,297000.00,,0.00,cod,318000,wait-payment,"21-01-2019 10:56"
35,SHOPBAY.ID,#SB100074,,"I7 TWS HEADSET BLUETOOTH WIRELESS",Kurniawan,081351926099,Benyamin.kurniawan@gmail.com,IDN,"KALIMANTAN BARAT","KABUPATEN KETAPANG","Kec. SANDAI",78871,"Jln.istana jaya 2 dusun terap",1,jnt,,30000.00,297000.00,,0.00,cod,327000,wait-payment,"21-01-2019 06:54"
36,SHOPBAY.ID,#SB100073,,"I7 TWS HEADSET BLUETOOTH WIRELESS","Malun bariroh",081349606622,Riyamalun@gmail.com,IDN,"KALIMANTAN TENGAH","KABUPATEN KOTAWARINGIN TIMUR","Kec. BAAMANG",74312,"Jln Sari Gading Darat no 52",1,jnt,,30000.00,297000.00,,0.00,cod,327000,wait-payment,"20-01-2019 23:25"
37,SHOPBAY.ID,#SB100072,,"I7 TWS HEADSET BLUETOOTH WIRELESS","Hunafa Shidqi Prawira",085381265806,prawira123@gmail.com,IDN,"SUMATERA UTARA","KOTA MEDAN","Kec. MEDAN AMPLAS",20147,"Jl. Bajak 2 gg. Cengkeh no. 75g",1,jne,,27000.00,297000.00,,0.00,cod,324000,wait-payment,"20-01-2019 20:24"
38,SHOPBAY.ID,#SB100071,,"I7 TWS HEADSET BLUETOOTH WIRELESS","Deden Sutrisna ",081284138811,dedenbrennan@gmail.com,IDN,BALI,"KOTA DENPASAR","Kec. DENPASAR BARAT",80114,"a/n : Deden Brennan  Alamat : Appartement Ganidha  Jl. Gunung soputan 1a no 5. Room A 101 Denpasar - 80119. Denpasar - Bali.(081284138811) Reg Note : Tolong kurir SMS/telp jika barang Sudah sampe!",1,jne,,19000.00,297000.00,,0.00,cod,316000,wait-payment,"20-01-2019 12:59"
39,SHOPBAY.ID,#SB100070,,"I7 TWS HEADSET BLUETOOTH WIRELESS","Khayyul Imdad",081325764222,imdadkhayyul@gmail.com,IDN,"JAWA TENGAH","KABUPATEN JEPARA","Kec. WELAHAN",59464,"Kalipucangkulon 006/003",1,jnt,,30000.00,297000.00,,0.00,transfer,327000,wait-payment,"20-01-2019 08:44"
40,SHOPBAY.ID,#SB100069,,"I7 TWS HEADSET BLUETOOTH WIRELESS","Oji Widaryanto",081281180407,Ojiqbord@yahoo.com,IDN,"JAWA BARAT","KABUPATEN BEKASI","Kec. TAMBUN UTARA",17510,"Bumi Anggrek blok R180, Karang Satria, Tambun Utara, Bekasi",1,jnt,,30000.00,297000.00,,0.00,transfer,327000,wait-payment,"20-01-2019 08:21"
41,SHOPBAY.ID,#SB100068,,"I7 TWS HEADSET BLUETOOTH WIRELESS","Achmad Maulizal",081210668545,ach.maulizal@gmail.com,IDN,"DKI JAKARTA","KOTA JAKARTA TIMUR","Kec. DUREN SAWIT",13460,"Jl. Delima 3 No. K19 Klender Buaran",1,jne,,8000.00,297000.00,,0.00,cod,305000,wait-payment,"19-01-2019 19:36"
42,SHOPBAY.ID,#SB100067,,"I7 TWS HEADSET BLUETOOTH WIRELESS",Ariwijaya,08125952910,ariwijaya754@gmail.com,IDN,"KALIMANTAN TIMUR","KOTA SAMARINDA","Kec. SAMARINDA ILIR",75114,"Jl.sultan alimuddin no.16 rt.25 kelurahan selili",1,jnt,,30000.00,297000.00,,0.00,cod,327000,wait-payment,"19-01-2019 08:40"
43,SHOPBAY.ID,#SB100066,,"I7 TWS HEADSET BLUETOOTH WIRELESS","Redi sunandar",081288117677,redisunandar@gmail.com,IDN,"KALIMANTAN BARAT","KABUPATEN KAPUAS HULU","Kec. PUTUSSIBAU",78711,"Samsat Putussibau jalan pendidikan no.1 Putussibau kel.putussibau kota lec.putussibau utara ",1,jnt,,30000.00,297000.00,FREEONGKIR,20000.00,cod,307000,wait-payment,"19-01-2019 07:41"
44,SHOPBAY.ID,#SB100065,,"I7 TWS HEADSET BLUETOOTH WIRELESS","Adih setiadi",082339293378,Adisetiadi299@gmail.com,IDN,"NUSA TENGGARA BARAT","KOTA BIMA","Kec. RASANAE TIMUR",841119,"Jln,terusan sape kodo2 rt02/01 rasanae timur",1,jnt,,30000.00,297000.00,,0.00,cod,327000,wait-payment,"19-01-2019 07:28"
45,SHOPBAY.ID,#SB100064,,"I7 TWS HEADSET BLUETOOTH WIRELESS","ode rajab",082248466916,oderajab1707@gmail.com,IDN,PAPUA,"KABUPATEN KEPULAUAN YAPEN","Kec. YAPEN TIMUR",98252,awunawai,1,jnt,,30000.00,297000.00,,0.00,cod,327000,wait-payment,"19-01-2019 03:06"
46,SHOPBAY.ID,#SB100063,,"I7 TWS HEADSET BLUETOOTH WIRELESS","Hardiantaa ginting",081282071431,herdiantaginting60@gmail.com,IDN,"DKI JAKARTA","KOTA JAKARTA PUSAT","Kec. KEMAYORAN",09809,"Jln bendungan jago gang teratai 1 no 4",1,jne,,8000.00,297000.00,,0.00,cod,305000,wait-payment,"19-01-2019 01:18"
47,SHOPBAY.ID,#SB100062,,"I7 TWS HEADSET BLUETOOTH WIRELESS",Yanti,085270978080,anosionzalukhu@gmail.com,IDN,"SUMATERA UTARA","KABUPATEN NIAS UTARA","Kec. LAHEWA",22856,"JL. IDANONDRAWA LOAWOWAGA DEPAN PUSTU IDANONDRAWA",1,jnt,,30000.00,297000.00,,0.00,cod,327000,wait-payment,"18-01-2019 11:27"
48,SHOPBAY.ID,#SB100061,,"I7 TWS HEADSET BLUETOOTH WIRELESS",Harvin,"0821 1208 8895",harvinsumampouw82@gmail.com,IDN,PAPUA,"KABUPATEN MIMIKA","Kec. MIMIKA  BARU",99910,"Jl.Yos Sudarso No.5",1,jnt,,30000.00,297000.00,,0.00,cod,327000,wait-payment,"18-01-2019 06:57"
49,SHOPBAY.ID,#SB100060,,"I7 TWS HEADSET BLUETOOTH WIRELESS","Andes Mariyanto",082338185899,andesmariyanto55@gmail.com,IDN,BALI,"KABUPATEN BADUNG","Kec. KUTA SELATAN",8361,"Jln.uluwatu kelan-kedonganan gg.soka 1 No.09",1,jne,,19000.00,297000.00,,0.00,cod,316000,wait-payment,"18-01-2019 06:25"
50,SHOPBAY.ID,#SB100059,,"I7 TWS HEADSET BLUETOOTH WIRELESS","Muhammad shaleh",0812-1209-6012,shalehalimin90@gmail.com,IDN,"SULAWESI TENGAH","KABUPATEN MOROWALI","Kec. BUNGKU TENGAH",92545,"Desa keurea",1,jnt,,30000.00,297000.00,,0.00,cod,327000,wait-payment,"17-01-2019 12:42"
51,SHOPBAY.ID,#SB100058,,"I7 TWS HEADSET BLUETOOTH WIRELESS",suparto,0895335996550,pirtikpanhoten@gmail.com,IDN,"SUMATERA UTARA","KOTA MEDAN","Kec. MEDAN TEMBUNG",20224,"jln pukat 1 komplek junction 43a",1,jne,,27000.00,297000.00,,0.00,cod,324000,wait-payment,"16-01-2019 22:27"
52,SHOPBAY.ID,#SB100057,,"I7 TWS HEADSET BLUETOOTH WIRELESS",budi,085251466666,imoet.budi@gmail.com,IDN,"KALIMANTAN TIMUR","KABUPATEN PASER","Kec. TANAH GROGOT",76211,"jl.DI.Panjaitan gang batu alam RT02 RW03 Desa Tapis ",1,jnt,,30000.00,297000.00,,0.00,cod,327000,wait-payment,"16-01-2019 20:36"
53,SHOPBAY.ID,#SB100056,,"I7 TWS HEADSET BLUETOOTH WIRELESS","Daniel octovan",081241218299,Multimediaku266@yahoo.co.id,IDN,PAPUA,"KOTA JAYAPURA","Kec. ABEPURA",90001,"Jln proyek masa indah dpn lapangan bola abhokhow waena distrik heram kel yabansai waena jayapura papua",1,jnt,,30000.00,297000.00,,0.00,cod,327000,wait-payment,"16-01-2019 16:04"
54,SHOPBAY.ID,#SB100055,,"I7 TWS HEADSET BLUETOOTH WIRELESS",Sofyan,0811526532,Kausarpalangkaraya@yahoo.com,IDN,"KALIMANTAN TENGAH","KOTA PALANGKA RAYA","Kec. PAHANDUT",73111,"Jalan darmosugondo 52 palangkaraya",1,jnt,,30000.00,297000.00,,0.00,cod,624000,wait-payment,"16-01-2019 11:43"
55,SHOPBAY.ID,#SB100054,,"I7 TWS HEADSET BLUETOOTH WIRELESS",Putraleo,081395340685,Putraleozendt@gmail.com,IDN,"SUMATERA UTARA","KOTA MEDAN","Kec. MEDAN POLONIA",20152,"Jl. Muara takus samping kantor pos medan polonia",1,jne,,27000.00,297000.00,,0.00,cod,324000,wait-payment,"16-01-2019 10:10"
56,SHOPBAY.ID,#SB100053,,"I7 TWS HEADSET BLUETOOTH WIRELESS","Daeng Iqbal",085345241456,Samsung.sst6776@gmail.com,IDN,"KALIMANTAN BARAT","KABUPATEN KUBU RAYA","Kec. TELUK PAKEDAI",78383,"Jln pematang mas desa selat remis Rt03/03 no30 kec teluk pakedai",1,jne,,49000.00,297000.00,,0.00,cod,346000,wait-payment,"15-01-2019 23:55"
57,SHOPBAY.ID,#SB100052,,"I7 TWS HEADSET BLUETOOTH WIRELESS","andul mutakhir",081342927602,airah277@gmail.com,IDN,"SULAWESI TENGGARA","KOTA KENDARI","Kec. MANDONGA",93111,"jln. malik raya by pass wisma putri dara samping graha pena kendari pos",1,jne,,45000.00,297000.00,,0.00,cod,342000,wait-payment,"15-01-2019 17:57"
58,SHOPBAY.ID,#SB100051,,"I7 TWS HEADSET BLUETOOTH WIRELESS","Olprine Pangalasen ",081244969032,mateipangalasen@gmail.com,IDN,"SULAWESI UTARA","KABUPATEN KEPULAUAN TALAUD","Kec. KABARUAN",95872,"Dusun II desa Pangeran Kec. Kabaruan",1,jne,,69000.00,297000.00,,0.00,cod,366000,wait-payment,"15-01-2019 16:32"
59,SHOPBAY.ID,#SB100050,,"I7 TWS HEADSET BLUETOOTH WIRELESS","Ahmad subhan",08989885521,achmadsubhan272@gmail.com,IDN,"JAWA TENGAH","KABUPATEN PEMALANG","Kec. RANDUDONGKAL",52353,"Ds. Semingkir Rt 01/02",1,jne,,23000.00,297000.00,,0.00,cod,320000,wait-payment,"15-01-2019 07:51"
60,SHOPBAY.ID,#SB100049,,"I7 TWS HEADSET BLUETOOTH WIRELESS","Ipung maulana",085349703277,kentopunk88@gmail.com,IDN,"KALIMANTAN TIMUR","KABUPATEN BERAU","Kec.  TANJUNG REDEB",773111,"Karang Ambon,GG swadayya",1,jne,,56000.00,297000.00,,0.00,transfer,353000,wait-payment,"15-01-2019 07:10"
61,SHOPBAY.ID,#SB100048,,"I7 TWS HEADSET BLUETOOTH WIRELESS","Amri Gustian",085211498011,eralsaputra12@gmail.com,IDN,RIAU,"KABUPATEN INDRAGIRI HULU","Kec. RENGAT BARAT",29351,"JL.lintas timur pematang rebah/gang KEMUNING pematang rebah",1,jnt,,30000.00,297000.00,,0.00,cod,327000,wait-payment,"14-01-2019 22:50"
62,SHOPBAY.ID,#SB100047,,"I7 TWS HEADSET BLUETOOTH WIRELESS","Alfons Laia",082273611493,alfonslaia900@gmail.com,IDN,"SUMATERA UTARA","KABUPATEN NIAS","Kec. GUNUNG SITOLI",22815,"Paroki St. Maria BPB, Jln Karet no. 33a",1,jnt,,30000.00,297000.00,,0.00,cod,327000,wait-payment,"14-01-2019 20:33"
63,SHOPBAY.ID,#SB100046,,"I7 TWS HEADSET BLUETOOTH WIRELESS",Rosdiana,085224436464,dian.azkaghaniabqari@yahoo.co.id,IDN,"JAWA BARAT","KABUPATEN TASIKMALAYA","Kec. SINGAPARNA",46414,"Kantor Kecamatn Singaparna jl. Bojongkoneng Singaparna Tasikmalaya",1,jne,,15000.00,297000.00,,0.00,cod,312000,wait-payment,"14-01-2019 12:20"
64,SHOPBAY.ID,#SB100045,,"I7 TWS HEADSET BLUETOOTH WIRELESS",Yonga,085216796363,Yongadunhill@gmail.com,IDN,"DKI JAKARTA","KOTA JAKARTA UTARA","Kec. PENJARINGAN",14450,"Jln c no 73a",1,jne,,8000.00,297000.00,,0.00,transfer,305000,wait-payment,"14-01-2019 09:06"
65,SHOPBAY.ID,#SB100039,,"I7 TWS HEADSET BLUETOOTH WIRELESS",mahyanuddin,081360362251,spulim43@gmail.com,IDN,ACEH,"KOTA LANGSA","Kec. ",24415,"jln perumnas desa birem puntong (kantor kpu kota langsa)",1,jne,,20000.00,297000.00,,0.00,cod,317000,wait-payment,"13-01-2019 17:59"
66,SHOPBAY.ID,#SB100038,,"I7 TWS HEADSET BLUETOOTH WIRELESS","Vieko Rompas",082290460133,mocosz.13@gmail.com,IDN,"SULAWESI UTARA","KOTA BITUNG","Kec. ",95514,"PT.Indofoot sukses makmur TBK cabang bitung",1,jne,,20000.00,297000.00,,0.00,transfer,317000,wait-payment,"13-01-2019 16:29"
67,SHOPBAY.ID,#SB100037,,"I7 TWS HEADSET BLUETOOTH WIRELESS","Andi Muhammad Rizal Wawo ",085234562627,rizal.wawo@icloud.com,IDN,"SULAWESI SELATAN","KOTA MAKASSAR","Kec. ",90231,"Jl. Pengayoman kompleks Bougenville blok. C No.1",1,jne,,20000.00,297000.00,,0.00,cod,317000,wait-payment,"13-01-2019 13:32"
68,SHOPBAY.ID,#SB100036,,"I7 TWS HEADSET BLUETOOTH WIRELESS","Reza maulana",08175910133,Rezamaualan@gmail.com,IDN,"JAWA TIMUR","KOTA MALANG","Kec. ",65139,"Jl.sawunggaling no 77",1,jne,,20000.00,297000.00,,0.00,cod,317000,wait-payment,"12-01-2019 22:42"
69,SHOPBAY.ID,#SB100035,,"I7 TWS HEADSET BLUETOOTH WIRELESS",Harman,085398087772,pnpm.barat@gmail.com,IDN,"SULAWESI SELATAN","KABUPATEN BONE","Kec. ",92700,"Jalan lapawawoi karaeng sigeri lorong persatuan samping mesjid supukalau",1,jne,,20000.00,297000.00,,0.00,cod,317000,wait-payment,"12-01-2019 03:08"
70,SHOPBAY.ID,#SB100034,,"I7 TWS HEADSET BLUETOOTH WIRELESS","Deden Sutrisna ",081284138811,dedenbrennan@gmail.com,IDN,"DKI JAKARTA","KOTA JAKARTA PUSAT","Kec. ",10240,"Appartement Citylofts Citywalk unit.2822 Sudirman Jakarta Pusat",1,jne,,20000.00,297000.00,,0.00,cod,317000,wait-payment,"11-01-2019 22:19"
71,SHOPBAY.ID,#SB100033,,"I7 TWS HEADSET BLUETOOTH WIRELESS","Kurniadi Syahputra",085271010121,Kurniadisyah@gmail.com,IDN,RIAU,"KOTA PEKANBARU","Kec. ",28125,"Jl.Air Dingin Perumahan D'Anugrah Block E7",1,jne,,20000.00,297000.00,,0.00,cod,317000,wait-payment,"11-01-2019 20:50"
72,SHOPBAY.ID,#SB100032,,"I7 TWS HEADSET BLUETOOTH WIRELESS","Jl.Yos Sudarso No.5",+6282112088895,harvinsumampouw82@gmail.com,IDN,PAPUA,"KABUPATEN MIMIKA","Kec. ",99910,"Jl.Yos Sudarso No.5",1,jne,,20000.00,297000.00,,0.00,cod,317000,wait-payment,"11-01-2019 16:54"
73,SHOPBAY.ID,#SB100031,,"I7 TWS HEADSET BLUETOOTH WIRELESS","Nemin. ",081362635477,nemin.aminudin97@gmail.com,IDN,ACEH,"KABUPATEN SIMEULUE","Kec. ",83893,"Labuhan bakti ",1,jne,,20000.00,297000.00,,0.00,cod,317000,wait-payment,"11-01-2019 16:15"
74,SHOPBAY.ID,#SB100030,,"I7 TWS HEADSET BLUETOOTH WIRELESS",Susandi,085247020767,Shandyselow@gmail.com,IDN,"KALIMANTAN BARAT","KOTA PONTIANAK","Kec. ",78235,"Tj,raya 1 kampung dalam belakang mesjid jami",1,jne,,20000.00,297000.00,,0.00,cod,317000,wait-payment,"11-01-2019 09:17"
75,SHOPBAY.ID,#SB100029,,"I7 TWS HEADSET BLUETOOTH WIRELESS","Dede purwanto",087743554323,dedepurwanto77249@gmail.com,IDN,"JAWA BARAT","KABUPATEN BANDUNG","Kec. ",40614,"Jl soekarnohatta no 851 cibiru depan stikes bhakti kencana bandung",1,jnt,,20000.00,297000.00,,0.00,cod,317000,wait-payment,"10-01-2019 23:50"
76,SHOPBAY.ID,#SB100021,,"I7 TWS HEADSET BLUETOOTH WIRELESS","Bintang Suryo",08972332342,bintang.suryo@gmail.com,IDN,BANTEN,"KOTA TANGERANG SELATAN","Kec. ",15417,"Jalan Kemuning 5, Pamulang Park Residence Blok K24, Pamulang Barat",1,jnt,,20000.00,299000.00,FREEONGKIR,20000.00,transfer,299000,wait-payment,"09-01-2019 11:55"
77,SHOPBAY.ID,#SB100019,,"I7 TWS HEADSET BLUETOOTH WIRELESS",Syapri,08126044852,syapri.lawyer@gmail.com,IDN,"SUMATERA UTARA","KABUPATEN DELI SERDANG","Kec. ",20371,"Jalan Beringin Pasar V No. 16 Tembung, Percut Sei Tua ",1,jnt,,20000.00,299000.00,,0.00,cod,319000,delivery-process,"08-01-2019 22:32"
