No,Account,"Order Code","Product Code","Product Name","Customer Name",Mobile-Phone,Email,Country,Province,City,Area,"Zip Code",Address,"Order Quantity","Logistic Company","Tracking Code","Shipping Cost",Price,"Coupon Code","Value Coupon","Payment Method",Total,Status,Date
1,SHOPBAY.ID,#SB100175,,"I7 TWS HEADSET BLUETOOTH WIRELESS","Amrizal Rengganis",081374182777,amrizal.rengganis15@gmail.com,IDN,"SUMATERA BARAT","KOTA PADANG","Kec. KURANJI",25565,"jalan Palo Pasa No.56 Korong Gadang",1,jne,,20000.00,297000.00,,0.00,cod,317000,wait-payment,"06-02-2019 01:53"
2,SHOPBAY.ID,#SB100174,,"I7 TWS HEADSET BLUETOOTH WIRELESS",andi,082255708777,andisubair88@gmail.com,IDN,"KALIMANTAN TIMUR","KOTA SAMARINDA","Kec. PALARAN",326181,samarinda,1,jne,,20000.00,297000.00,,0.00,cod,317000,wait-payment,"05-02-2019 20:49"
3,SHOPBAY.ID,#SB100173,,"I7 TWS HEADSET BLUETOOTH WIRELESS","I Kadek Gunung Suyasa",081936566062,dhex.mountain@gmail.com,IDN,"NUSA TENGGARA BARAT","KOTA MATARAM","Kec. Sekarbela",83116,"Jalan Mandalika Wisma Bunda Kekalik Timur",1,jne,,20000.00,297000.00,,0.00,cod,317000,wait-payment,"05-02-2019 19:07"
4,SHOPBAY.ID,#SB100172,,"I7 TWS HEADSET BLUETOOTH WIRELESS",Herry,082192258202,Herrygama15@gmail.com,IDN,"MALUKU UTARA","KABUPATEN HALMAHERA TENGAH","Kec. WEDA",97850,"Desa lelilef sawai belakang gereja pantekosta",1,jne,,20000.00,297000.00,,0.00,transfer,317000,wait-payment,"05-02-2019 18:35"
5,SHOPBAY.ID,#SB100171,,"I7 TWS HEADSET BLUETOOTH WIRELESS","ryan chandra zulkarnaen panto",081340273202,Chandravhica1626@gmail.com,IDN,"SULAWESI UTARA","KOTA MANADO","Kec. MALALAYANG",95115,"Corner Club, Robert Wolter Monginsidi I, Komp. Bahu Mall, Malalayang, Bahu, Malalayang, Bahu, Malalayang, Manado City, North Sulawesi",1,jnt,,20000.00,297000.00,,0.00,cod,317000,wait-payment,"05-02-2019 18:25"
6,SHOPBAY.ID,#SB100170,,"I7 TWS HEADSET BLUETOOTH WIRELESS",arifuddin,085210749663,ariffuddin79139@gmail.com,IDN,BANTEN,"KABUPATEN SERANG","Kec. BOJONEGARA",42616,"Unnamed Road",1,jne,,20000.00,297000.00,,0.00,cod,317000,wait-payment,"05-02-2019 16:32"
7,SHOPBAY.ID,#SB100169,,"I7 TWS HEADSET BLUETOOTH WIRELESS",Roy,082258506562,achmadrijalkholilurr@gmail.com,IDN,BANTEN,"KOTA SERANG","Kec. SERANG",42116,"Jl. Ratu Ayu Manis Blok C1 Rt 01 Rw 12 No 43 Perumnas Ciracas Indah",1,jne,,20000.00,297000.00,,0.00,cod,317000,wait-payment,"05-02-2019 14:45"
8,SHOPBAY.ID,#SB100168,,"I7 TWS HEADSET BLUETOOTH WIRELESS","Andre De Fretes",085256909063,defretes.andre@gmail.com,IDN,"SULAWESI UTARA","KABUPATEN MINAHASA","Kec. TOMBARIRI",95351,"Sarani Matani Jaga 2",1,jne,,20000.00,297000.00,,0.00,cod,317000,wait-payment,"05-02-2019 14:44"
9,SHOPBAY.ID,#SB100167,,"I7 TWS HEADSET BLUETOOTH WIRELESS","Dela Ocmilasari Hutabarat ",082363997002,delahutabarat124@yahoo.com,IDN,"SUMATERA UTARA","KOTA MEDAN","Kec. MEDAN SELAYANG",20131,"Jl bunga cempaka gg cempaka baru kos-kosan pak E. Sianturi pasar 3 Padang bulan medan",1,jne,,20000.00,297000.00,,0.00,cod,317000,wait-payment,"05-02-2019 09:46"
10,SHOPBAY.ID,#SB100166,,"I7 TWS HEADSET BLUETOOTH WIRELESS",Ardiyantosi,085267017333,Ardi_yantosi@yahoo.co.id,IDN,"SUMATERA SELATAN","KABUPATEN MUARA ENIM","Kec. SEMENDO DARAT LAUT",31356,"jln lintas lahat dusun2 desa muara danau",1,jnt,,20000.00,297000.00,,0.00,cod,317000,wait-payment,"05-02-2019 08:20"
11,SHOPBAY.ID,#SB100165,,"I7 TWS HEADSET BLUETOOTH WIRELESS",Sumardi,082384585537,sumarditanjung@yahoo.co.id,IDN,"DKI JAKARTA","KOTA JAKARTA UTARA","Kec. PENJARINGAN",14450,"Jl kerapu 3 depan mesjis AT-TAUFIQUL MUBAROK muara angke penjaringan pluit jakarta utara",1,jne,,20000.00,297000.00,,0.00,cod,317000,wait-payment,"05-02-2019 08:07"
12,SHOPBAY.ID,#SB100164,,"I7 TWS HEADSET BLUETOOTH WIRELESS","Rimbo bujang unit 2 pasar sarina",082174858193,rizkyaulia1919@gmail.com,IDN,JAMBI,"KABUPATEN TEBO","Kec. RIMBO BUJANG",37551,"Rimbo bujang unit 2 pasar sarina",1,jnt,,20000.00,297000.00,,0.00,transfer,317000,wait-payment,"04-02-2019 18:48"
13,SHOPBAY.ID,#SB100163,,"I7 TWS HEADSET BLUETOOTH WIRELESS","Solon Sihombing",08161961836,bigsolon0808@gmail.com,IDN,"DKI JAKARTA","KOTA JAKARTA PUSAT","Kec. KEMAYORAN",10630,"Apt mediterania palace tower C floor 18 EF Kemayoran Jakpus",1,jne,,20000.00,297000.00,,0.00,cod,317000,wait-payment,"04-02-2019 17:46"
14,SHOPBAY.ID,#SB100162,,"I7 TWS HEADSET BLUETOOTH WIRELESS","Ngurah Arya Natih",087761447001,nguraharya582@gmail.com,IDN,BALI,"KOTA DENPASAR","Kec. DENPASAR  TIMUR",80232,"Yayasan Bunga Bali Jln. By Pass Prof. Dr. Ida Bagus Mantra No.111 (sebelah timur polsek dentim) Kesiman Kerthalangu",1,jne,,20000.00,297000.00,,0.00,cod,317000,wait-payment,"04-02-2019 14:42"
15,SHOPBAY.ID,#SB100161,,"I7 TWS HEADSET BLUETOOTH WIRELESS","ryan chandra zulkarnaen panto",081340273202,chandrapanto86@gmail.com,IDN,"SULAWESI UTARA","KOTA MANADO","Kec. MALALAYANG",95115,"Corner Club, Robert Wolter Monginsidi I, Komp. Bahu Mall, Malalayang, Bahu, Malalayang, Bahu, Malalayang, Manado City, North Sulawesi",1,jnt,,20000.00,297000.00,,0.00,cod,317000,wait-payment,"04-02-2019 10:20"
16,SHOPBAY.ID,#SB100160,,"I7 TWS HEADSET BLUETOOTH WIRELESS",Husnulakbar,081269858540,Bayhoki@gmail.com,IDN,"SUMATERA UTARA","KABUPATEN LANGKAT","Kec. PANGKALAN SUSU",20858,"Beras basah gang sehati lingkungan lll",1,jnt,,20000.00,297000.00,,0.00,cod,317000,wait-payment,"04-02-2019 02:23"
17,SHOPBAY.ID,#SB100159,,"I7 TWS HEADSET BLUETOOTH WIRELESS","Chandra wijaya",081362264888,cwijaya233@gmail.com,IDN,"SUMATERA UTARA","KOTA MEDAN","Kec. MEDAN DENAI",20371,"Dusun Vll jl.budi utomo/pancing ll",1,jnt,,20000.00,297000.00,,0.00,cod,317000,wait-payment,"04-02-2019 00:14"
18,SHOPBAY.ID,#SB100158,,"I7 TWS HEADSET BLUETOOTH WIRELESS","Mirza ",081990788899,abangmirza71@gmail.com,IDN,"KALIMANTAN TIMUR","KOTA SAMARINDA","Kec. SAMARINDA SEBERANG",75321,"Jl.bung tomo no30.RT 14 Rw.03 samarinda seberang",1,jne,,20000.00,297000.00,,0.00,cod,317000,wait-payment,"03-02-2019 21:46"
19,SHOPBAY.ID,#SB100157,,"I7 TWS HEADSET BLUETOOTH WIRELESS",sudirman,081226003154,sudirmanrsn@gmail.com,IDN,"SULAWESI SELATAN","KABUPATEN JENEPONTO","Kec. ARUNGKEKE",92361,"PPPM mannilingi bulo-bulo jln mannilingi dg jalling no. 45 desa bulo-bulo kecamatan arungkeke kabupaten jeneponto sulsel.kode pos 92361",1,jne,,20000.00,297000.00,,0.00,cod,317000,wait-payment,"03-02-2019 16:48"
20,SHOPBAY.ID,#SB100156,,"I7 TWS HEADSET BLUETOOTH WIRELESS",sudirman,081226003154,sudirmanrsn@gmail.com,IDN,"SULAWESI SELATAN","KABUPATEN JENEPONTO","Kec. ARUNGKEKE",92361,"PPPM mannilingi bulo-bulo jln mannilingi dg jalling no. 45 desa bulo-bulo kecamatan arungkeke kabupaten jeneponto sulsel.kode pos 92361",1,jne,,20000.00,297000.00,,0.00,cod,317000,wait-payment,"03-02-2019 13:39"
21,SHOPBAY.ID,#SB100155,,"I7 TWS HEADSET BLUETOOTH WIRELESS",Herwin,081212129975,herwinhou@gmail.com,IDN,BALI,"KABUPATEN BADUNG","Kec. JIMBARAN",80361,"perum taman griya,jln.nuansa utama timur lll.no.1,jimbaran kuta",1,jne,,20000.00,297000.00,freeongkir,20000.00,cod,297000,wait-payment,"03-02-2019 13:17"
22,SHOPBAY.ID,#SB100154,,"I7 TWS HEADSET BLUETOOTH WIRELESS",JulkifliYusup,085349720825,djulkifli.djulkifli01@gmail.com,IDN,"MALUKU UTARA","KOTA TERNATE","Kec. PULAU TERNATE",9722,"Kampung makassar barat",1,jne,,20000.00,297000.00,,0.00,transfer,317000,wait-payment,"03-02-2019 12:54"
23,SHOPBAY.ID,#SB100153,,"I7 TWS HEADSET BLUETOOTH WIRELESS","Haryono sapii",08122110674,Haryonosapii1304@gmail.com,IDN,GORONTALO,"KOTA GORONTALO","Kec. DUMBO RAYA",96118,"Jl saptamarga 56 RT/RW 001/001",1,jnt,,20000.00,297000.00,,0.00,transfer,317000,wait-payment,"03-02-2019 07:29"
24,SHOPBAY.ID,#SB100152,,"I7 TWS HEADSET BLUETOOTH WIRELESS",Aden,083866846380,Nugrahaspddendy@gmail.com,IDN,"JAWA BARAT","KABUPATEN PURWAKARTA","Kec. CIBATU",41181,"Kp ciparungmulya rt 10 rw 03 ds cipinang",1,jnt,,20000.00,297000.00,,0.00,cod,317000,wait-payment,"02-02-2019 21:19"
25,SHOPBAY.ID,#SB100151,,"I7 TWS HEADSET BLUETOOTH WIRELESS","Jln. Durian no.  79",+6285397008811,udinheang.hino@gmail.com,IDN,"SULAWESI TENGGARA","KOTA KENDARI","Kec. Wua Wua",93117,"Jln. Durian no.  79",1,jne,,20000.00,297000.00,,0.00,cod,317000,wait-payment,"02-02-2019 19:01"
26,SHOPBAY.ID,#SB100150,,"I7 TWS HEADSET BLUETOOTH WIRELESS","Yofiga Indrawab",082198954444,ivo.viga.iv@gmail.com,IDN,"JAWA TIMUR","KABUPATEN PROBOLINGGO","Kec. Leces",67223,"Jorongan rt/rw :01/01 blok polotan(campuran)",1,jnt,,20000.00,297000.00,,0.00,cod,317000,wait-payment,"02-02-2019 18:37"
27,SHOPBAY.ID,#SB100149,,"I7 TWS HEADSET BLUETOOTH WIRELESS","Putu dedisanjaya",+6281239603006,puturoly@gmail.com,IDN,BALI,"KABUPATEN BADUNG","Kec. KUTA SELATAN",80361,"Kantor taxi kowinu,nusadua,Kuta selatan Badung.",1,jnt,,20000.00,297000.00,,0.00,cod,317000,wait-payment,"02-02-2019 13:19"
28,SHOPBAY.ID,#SB100148,,"I7 TWS HEADSET BLUETOOTH WIRELESS",Rendi,085249776211,ahmadzoulkifli023@gmail.com,IDN,"NUSA TENGGARA BARAT","KABUPATEN LOMBOK TIMUR","Kec. KERUAK",83672,Rendi,1,jne,,20000.00,297000.00,,0.00,transfer,317000,wait-payment,"02-02-2019 02:12"
29,SHOPBAY.ID,#SB100147,,"I7 TWS HEADSET BLUETOOTH WIRELESS","Akmal kurniawan",+6281220433373,akmalkurniawan095@gmail.com,IDN,"SULAWESI SELATAN","KABUPATEN LUWU TIMUR","Kec. NUHA",92984,"Jln g.krakatau no. 287 sorowako",1,jnt,,20000.00,297000.00,,0.00,cod,317000,wait-payment,"02-02-2019 01:00"
30,SHOPBAY.ID,#SB100146,,"I7 TWS HEADSET BLUETOOTH WIRELESS",Hasbi,085261878714,Hasbitkj7@gmail.com,IDN,"SUMATERA UTARA","KOTA MEDAN","Kec. MEDAN KOTA",20159,"Jemput di jne caabang di simpang juanda",1,jne,,20000.00,297000.00,,0.00,transfer,317000,wait-payment,"01-02-2019 21:58"
31,SHOPBAY.ID,#SB100145,,"I7 TWS HEADSET BLUETOOTH WIRELESS","SVANDI SAMPALENG",081243517723,christian.sampaleng060995@gmail.com,IDN,"SULAWESI UTARA","KOTA MANADO","Kec. WENANG",19500,"jl jendral sudirman depan hasjrat abadi komo luar nyiur travel",1,jnt,,20000.00,297000.00,,0.00,cod,317000,wait-payment,"01-02-2019 21:04"
32,SHOPBAY.ID,#SB100144,,"I7 TWS HEADSET BLUETOOTH WIRELESS","Nikodemus norman s.",085255520868,Normannikodemus77@gmail.com,IDN,PAPUA,"KABUPATEN JAYAPURA","Kec. SENTANI",99352,"Jl. Youmakhe pasarbaru sentani",1,jne,,20000.00,297000.00,,0.00,cod,317000,wait-payment,"01-02-2019 19:14"
33,SHOPBAY.ID,#SB100143,,"I7 TWS HEADSET BLUETOOTH WIRELESS","Muhammad mardani",082358232375,Daniumar415@gmail.com,IDN,"KALIMANTAN SELATAN","KABUPATEN HULU SUNGAI UTARA","Kec. AMUNTAI TENGAH",71419,"Jln.saberan effendi,palampitan hilir dekat pasar sejumput gang nangka",1,jnt,,20000.00,297000.00,,0.00,cod,317000,wait-payment,"01-02-2019 17:55"
34,SHOPBAY.ID,#SB100142,,"I7 TWS HEADSET BLUETOOTH WIRELESS","Adhitya putra",081238904781,Adityaputraa.a@gmail.com,IDN,BALI,"KABUPATEN GIANYAR","Kec. UBUD",80571,"Jalan suweta no13",1,jnt,,20000.00,297000.00,,0.00,cod,317000,wait-payment,"01-02-2019 13:36"
35,SHOPBAY.ID,#SB100141,,"I7 TWS HEADSET BLUETOOTH WIRELESS","Romia sari",081267538883,Miamardison3@gmail.com,IDN,RIAU,"KOTA PEKANBARU","Kec. TAMPAN",28293,"Jln.garuda sakti prum unri blok c16 rt 04 rw 11",1,jne,,20000.00,297000.00,,0.00,cod,317000,wait-payment,"01-02-2019 11:30"
36,SHOPBAY.ID,#SB100140,,"I7 TWS HEADSET BLUETOOTH WIRELESS","Muh subri fadli",081998507087,muh.subri96@gmail.com,IDN,BALI,"KABUPATEN BADUNG","Kec. KUTA",80361,"Kuta gang sadasari",1,jne,,20000.00,297000.00,,0.00,transfer,317000,wait-payment,"01-02-2019 02:36"
37,SHOPBAY.ID,#SB100139,,"I7 TWS HEADSET BLUETOOTH WIRELESS","Jerry Andi depari","081362545241 ",jerrydepari96@gmail.com,IDN,"SUMATERA UTARA","KABUPATEN TOBA SAMOSIR","Kec. PORSEA",22384,"Aspol polres tobasa jl siponggol dolok, kec. Siantar narumonda kab. Toba samosir",1,jne,,20000.00,297000.00,,0.00,cod,317000,wait-payment,"31-01-2019 23:05"
38,SHOPBAY.ID,#SB100138,,"I7 TWS HEADSET BLUETOOTH WIRELESS","Akmal kurniawan",+6281220433373,akmalkurniawan095@gmail.com,IDN,"SULAWESI SELATAN","KABUPATEN LUWU TIMUR","Kec. NUHA",92984,"Jln g.krakatau no. 287 sorowako",1,jnt,,20000.00,297000.00,,0.00,transfer,317000,wait-payment,"31-01-2019 19:30"
39,SHOPBAY.ID,#SB100137,,"I7 TWS HEADSET BLUETOOTH WIRELESS",Sudarmin,081350007957,sudarmin76@yahoo.co.id,IDN,"KALIMANTAN TIMUR","KOTA BALIKPAPAN","Kec. BALIKPAPAN TIMUR",76116,"Jl. Mulawarman RT.07 No.02A Kelurahan Manggar Baru",1,jne,,20000.00,297000.00,,0.00,cod,317000,wait-payment,"31-01-2019 16:11"
40,SHOPBAY.ID,#SB100136,,"I7 TWS HEADSET BLUETOOTH WIRELESS","Kardi novriadi sihotang",082240997711,Kardi3888@gmail.com,IDN,"SUMATERA BARAT","KABUPATEN PADANG PARIAMAN","Kec. LUBUK ALUNG",25528,"Perumnas kp ladang belakang telkom",1,jne,,20000.00,297000.00,,0.00,cod,317000,wait-payment,"31-01-2019 12:12"
41,SHOPBAY.ID,#SB100135,,"I7 TWS HEADSET BLUETOOTH WIRELESS","Ramonnico rusli",081276664888,nico.ramon81@gmail.com,IDN,"SUMATERA BARAT","KABUPATEN SOLOK SELATAN","Kec. SEI PAGU",26667,"Jln. Raya batang lawe no21 wisma umi kalsum",1,jne,,20000.00,297000.00,,0.00,cod,317000,wait-payment,"31-01-2019 03:17"
42,SHOPBAY.ID,#SB100134,,"I7 TWS HEADSET BLUETOOTH WIRELESS",Billy,081387968811,yuniar28@gmail.com,IDN,"KALIMANTAN BARAT","KABUPATEN KETAPANG","Kec. MATAN HILIR UTARA",78821,"Jalan, Agus Salim no.9B",1,jnt,,20000.00,297000.00,,0.00,cod,317000,wait-payment,"30-01-2019 22:40"
43,SHOPBAY.ID,#SB100133,,"I7 TWS HEADSET BLUETOOTH WIRELESS","Nur Fitriani",08114535088,nv3ani.0611@gmail.com,IDN,"SULAWESI TENGAH","KOTA PALU","Kec. PALU SELATAN",94126,"Jalan Towua 2 Lorong 2 No. 7A",1,jnt,,20000.00,297000.00,,0.00,cod,317000,wait-payment,"30-01-2019 20:07"
44,SHOPBAY.ID,#SB100132,,"I7 TWS HEADSET BLUETOOTH WIRELESS","Sutomo atmaja",082159182433,Sutomoatmaja@yahoo.com,IDN,"KALIMANTAN TIMUR","KOTA BALIKPAPAN","Kec. BALIKPAPAN UTARA",76126,"Jl.Soekarno Hatta Km 5,5 No.A9 RT.36 (Disamping Maxi)  Telp : 0542-7203289 Fax : 0542-7203290 Kelurahan : Graha Indah Kecamatan : Balikpapan Utara  Kode pos : 76126",1,jne,,20000.00,297000.00,,0.00,cod,317000,wait-payment,"30-01-2019 19:56"
45,SHOPBAY.ID,#SB100131,,"I7 TWS HEADSET BLUETOOTH WIRELESS","Mochammad Fadly Faldt",082167369959,fadlyfaldy77@gmail.com,IDN,"SULAWESI SELATAN","KOTA MAKASSAR","Kec. RAPPOCINI",90221,"Btn Minasa Upa Blok K 6 Nomor 6",1,jne,,20000.00,297000.00,,0.00,cod,317000,wait-payment,"30-01-2019 19:28"
46,SHOPBAY.ID,#SB100130,,"I7 TWS HEADSET BLUETOOTH WIRELESS","andra joistira",081347144636,efndra@gmail.com,IDN,"KALIMANTAN TIMUR","KABUPATEN BERAU","Kec. MARATUA",78560,"jln.batu payung maratua Rt.1",1,jne,,20000.00,297000.00,,0.00,cod,317000,wait-payment,"30-01-2019 14:22"
47,SHOPBAY.ID,#SB100129,,"I7 TWS HEADSET BLUETOOTH WIRELESS",Goeyardi,0816528108,Goeykoji@yahoo.com,IDN,BANTEN,"KOTA TANGERANG","Kec. CIPONDOH",15119,"Ruko permata niaga I no.25, tanah tinggi (sebelah bank cahaya)",1,jnt,,20000.00,297000.00,,0.00,cod,317000,wait-payment,"30-01-2019 09:41"
48,SHOPBAY.ID,#SB100128,,"I7 TWS HEADSET BLUETOOTH WIRELESS",Afrizal,082280558798,rizalriand@gmail.com,IDN,JAMBI,"KABUPATEN BATANG HARI","Kec. MERSAM",36654,"Desa simpang rantau gedang RT 005 (Kantor Desa Simpang Rantau Gedang)",1,jnt,,20000.00,297000.00,,0.00,cod,317000,wait-payment,"30-01-2019 09:24"
49,SHOPBAY.ID,#SB100127,,"I7 TWS HEADSET BLUETOOTH WIRELESS","Rifai Bayu Nugraha",081226675461,bakmijawabayu.magelang@gmail.com,IDN,"JAWA TENGAH","KABUPATEN MAGELANG","Kec. MERTOYUDAN",56172,"Jl melati no 22 rt12 rw04 mertoyudan",1,jnt,,20000.00,297000.00,,0.00,cod,317000,wait-payment,"30-01-2019 00:00"
50,SHOPBAY.ID,#SB100126,,"I7 TWS HEADSET BLUETOOTH WIRELESS",Faisal,082167799956,WE-elinno@yaho.com,IDN,ACEH,"KOTA BANDA ACEH","Kec. LUENG BATA",23248,"Jl.elang timur no 09 Blang cut",1,jne,,20000.00,297000.00,,0.00,cod,317000,wait-payment,"29-01-2019 21:54"
51,SHOPBAY.ID,#SB100125,,"I7 TWS HEADSET BLUETOOTH WIRELESS","Rasyid Ramadhan",085849754171,rasyid.ramadhan01@gmail.com,IDN,"KALIMANTAN SELATAN","KOTA BANJARMASIN","Kec. BANJARMASIN BARAT",70111,"Jalan Mayjend sutoyo s no 408 (Akper Kesdam 6)",1,jne,,20000.00,297000.00,,0.00,cod,317000,wait-payment,"29-01-2019 18:35"
52,SHOPBAY.ID,#SB100124,,"I7 TWS HEADSET BLUETOOTH WIRELESS",endang,081354398449,endangirawaty@yahoo.com,IDN,"JAWA TIMUR","KABUPATEN SIDOARJO","Kec. SIDOARJO",61225,"Pondok Mutiara blok BW no 11",1,jne,,20000.00,297000.00,,0.00,cod,317000,wait-payment,"29-01-2019 18:30"
53,SHOPBAY.ID,#SB100123,,"I7 TWS HEADSET BLUETOOTH WIRELESS","Budi handoko",085647777001,Budihandokopurbalingga@gmail.com,IDN,"JAWA TENGAH","KABUPATEN PURBALINGGA","Kec. PURBALINGGA",53311,"Jln. Kominot Asrama polisi polres purbalingga no 38/09",1,jne,,20000.00,297000.00,,0.00,transfer,317000,wait-payment,"29-01-2019 18:18"
54,SHOPBAY.ID,#SB100122,,"I7 TWS HEADSET BLUETOOTH WIRELESS","syaiful anwar",085238600865,awnk_tea@yahoo.com,IDN,"JAWA BARAT","KABUPATEN CIREBON","Kec. CIREBON BARAT",45154,"toko tiga utama jln.tuparev no.70a cirebon",1,jne,,20000.00,297000.00,,0.00,cod,317000,wait-payment,"29-01-2019 15:56"
55,SHOPBAY.ID,#SB100121,,"I7 TWS HEADSET BLUETOOTH WIRELESS","Rijalmen Mendrofa",08116339898,ricky.mendrova@yahoo.co.id,IDN,"SUMATERA UTARA","KABUPATEN NIAS UTARA","Kec. LAHEWA",22853,"Jln soekarno no 133",1,jne,,20000.00,297000.00,Freeongkir,20000.00,cod,297000,wait-payment,"29-01-2019 15:02"
56,SHOPBAY.ID,#SB100120,,"I7 TWS HEADSET BLUETOOTH WIRELESS","Dimas Prasetyahani",085747183070,dims.prasetya@gmail.com,IDN,"JAWA TENGAH","KABUPATEN BANYUMAS","Kec. PURWOREJO SELATAN",53147,"Jl. Sarwoendah 1 no.21 rt04 rw08",1,jne,,20000.00,297000.00,,0.00,cod,317000,wait-payment,"29-01-2019 13:56"
57,SHOPBAY.ID,#SB100119,,"I7 TWS HEADSET BLUETOOTH WIRELESS","Dimas Prasetyahani",085747183070,dims.prasetya@gmail.com,IDN,"JAWA TENGAH","KABUPATEN BANYUMAS","Kec. PURWOREJO SELATAN",53147,"Jl. Sarwoendah 1 no.21 rt04 rw08",1,jne,,20000.00,297000.00,,0.00,cod,317000,wait-payment,"29-01-2019 13:54"
58,SHOPBAY.ID,#SB100118,,"I7 TWS HEADSET BLUETOOTH WIRELESS",ioou,081909922122,sasa@gmail.com,IDN,"JAWA TENGAH","KABUPATEN SRAGEN","Kec. SIDOHARJO",12212,niko,1,jne,,20000.00,297000.00,FREEONGKIR,20000.00,cod,297000,wait-payment,"29-01-2019 11:32"
59,SHOPBAY.ID,#SB100117,,"I7 TWS HEADSET BLUETOOTH WIRELESS",Dani,085248184800,Danirahman333@gmail.com,IDN,"KALIMANTAN SELATAN","KOTA BANJARMASIN","Kec. BANJARMASIN BARAT",70116,"Jl belitung laut Gg. Sariawan RT 07 No 17",1,jne,,20000.00,297000.00,,0.00,cod,317000,wait-payment,"29-01-2019 11:23"
60,SHOPBAY.ID,#SB100116,,"I7 TWS HEADSET BLUETOOTH WIRELESS",Abdullatif,081360724466,Alabdul.latif1986@gmail.com,IDN,"SUMATERA UTARA","KOTA MEDAN","Kec. MEDAN TEMBUNG",20222,"Abdul latif",1,jnt,,20000.00,297000.00,,0.00,cod,317000,wait-payment,"29-01-2019 11:15"
61,SHOPBAY.ID,#SB100115,,"I7 TWS HEADSET BLUETOOTH WIRELESS","Rudy wijaya salim",0817802029,Rudy29salim@gmail.com,IDN,"DKI JAKARTA","KOTA JAKARTA UTARA","Kec. KELAPA GADING",14250,"Jalan gading nirwana I PF 16 no 8",1,jne,,20000.00,297000.00,,0.00,cod,317000,wait-payment,"29-01-2019 07:56"
62,SHOPBAY.ID,#SB100114,,"I7 TWS HEADSET BLUETOOTH WIRELESS","Fadil muhammad kosim",089648591130,fadilmuhammad1933@gmail.com,IDN,"JAWA BARAT","KABUPATEN BANDUNG","Kec. MARGAHAYU",40226,"Jl. Sekeloa no 24 RT 05 RW 09",1,jne,,20000.00,297000.00,,0.00,cod,317000,wait-payment,"29-01-2019 04:06"
63,SHOPBAY.ID,#SB100113,,"I7 TWS HEADSET BLUETOOTH WIRELESS","H Muhammad Chatab",08111077118,mchattab@yahoo.com,IDN,"KALIMANTAN TIMUR","KOTA SAMARINDA","Kec. SAMARINDA ULU",75117,"Jl Sei Brantas No 6",1,jne,,20000.00,297000.00,,0.00,transfer,317000,wait-payment,"29-01-2019 00:30"
64,SHOPBAY.ID,#SB100112,,"I7 TWS HEADSET BLUETOOTH WIRELESS","Chandra wijaya",081362264888,cwijaya233@gmail.com,IDN,"SUMATERA UTARA","KOTA MEDAN","Kec. MEDAN TIMUR",20371,"Dusun VII jl.budi utomo/pancing II",1,jnt,,20000.00,297000.00,,0.00,cod,317000,wait-payment,"28-01-2019 22:11"
65,SHOPBAY.ID,#SB100111,,"I7 TWS HEADSET BLUETOOTH WIRELESS",Milawati,+62822-5143-0201,devitrk915@gmail.com,IDN,"KALIMANTAN UTARA","KOTA TARAKAN","Kec. TARAKAN TENGAH",77113,"Selumit Darat, Gang Kenari RT.13, no.39",1,jne,,20000.00,297000.00,,0.00,cod,317000,wait-payment,"28-01-2019 20:15"
66,SHOPBAY.ID,#SB100110,,"I7 TWS HEADSET BLUETOOTH WIRELESS",Vika,082255239110,Selvennylisan@gmail.com,IDN,"KALIMANTAN BARAT","KOTA SINGKAWANG","Kec. SINGKAWANG TENGAH",73321,"Jln ks tubun",1,jne,,20000.00,297000.00,,0.00,cod,317000,wait-payment,"28-01-2019 11:18"
67,SHOPBAY.ID,#SB100109,,"I7 TWS HEADSET BLUETOOTH WIRELESS","Putri Brilliantin",085397296464,putribrilliantin@ymail.com,IDN,"SULAWESI SELATAN","KABUPATEN GOWA","Kec. SOMBA OPU",92114,"Kompleks anggrek blok AM 5 no 4, Minasa Upa",1,jnt,,20000.00,297000.00,,0.00,cod,317000,wait-payment,"28-01-2019 10:28"
68,SHOPBAY.ID,#SB100108,,"I7 TWS HEADSET BLUETOOTH WIRELESS","Teja Sungkawa",08122123164,teja140186@gmail.com,IDN,"JAWA BARAT","KABUPATEN BANDUNG","Kec. BALEENDAH",40375,"Jl. Adipati Agung No. 91 Kel. Baleendah",1,jnt,,20000.00,297000.00,,0.00,cod,317000,wait-payment,"28-01-2019 08:45"
69,SHOPBAY.ID,#SB100107,,"I7 TWS HEADSET BLUETOOTH WIRELESS",Ibrahim,085398807237,ktl_ibrahim@yahoo.com,IDN,"SULAWESI TENGGARA","KABUPATEN MUNA","Kec. KATOBU",93611,"Jalan Kantolalo",1,jnt,,20000.00,297000.00,FREEONGKIR,20000.00,cod,297000,wait-payment,"28-01-2019 08:41"
70,SHOPBAY.ID,#SB100106,,"I7 TWS HEADSET BLUETOOTH WIRELESS","Yudi irwansyah toha",085263007555,yudiirwansyahtoha@gmail.com,IDN,"SUMATERA UTARA","KOTA MEDAN","Kec. MEDAN LABUHAN",20251,"Jln. KL yos sudarso km 13.5 no 25 lk II ",1,jne,,20000.00,297000.00,,0.00,cod,317000,wait-payment,"27-01-2019 15:26"
71,SHOPBAY.ID,#SB100105,,"I7 TWS HEADSET BLUETOOTH WIRELESS","Tsaqila Muvidah Halimah",08129129747,Tsaqilahalimah@gmail.com,IDN,"JAWA BARAT","KOTA BEKASI","Kec. JATISAMPURNA",17435,"Citra Gran Cibubur Blok G 1 no 15, Central Garden Bulevard",1,jne,,20000.00,297000.00,,0.00,cod,317000,wait-payment,"27-01-2019 14:08"
72,SHOPBAY.ID,#SB100104,,"I7 TWS HEADSET BLUETOOTH WIRELESS","ahmad maryadi",0811937228,project5depok@gmail.com,IDN,"KALIMANTAN TIMUR","KOTA SAMARINDA","Kec. SAMARINDA ULU",75123,"	Jl. Aw Syahrani, Gg. 3B No.1, Air Hitam, Samarinda Ulu, Kota Samarinda, Kalimantan Timur 75123",1,jne,,20000.00,297000.00,,0.00,transfer,317000,payment-success,"27-01-2019 08:15"
73,SHOPBAY.ID,#SB100103,,"I7 TWS HEADSET BLUETOOTH WIRELESS",Taufiq,082252200275,jibunkatu@gmail.com,IDN,"KALIMANTAN SELATAN","KOTA BANJARMASIN","Kec. BANJARMASIN TIMUR",7024,"Jl. Pramuka komp. Tirta dharma . Dinas kesehatan kota Banjarmasin",1,jnt,,20000.00,297000.00,,0.00,cod,317000,wait-payment,"26-01-2019 16:22"
74,SHOPBAY.ID,#SB100102,,"I7 TWS HEADSET BLUETOOTH WIRELESS","Umar hadi",081325142631,Owner.bajoe@gmail.com,IDN,"KALIMANTAN TIMUR","KABUPATEN BERAU","Kec.  TANJUNG REDEB",77311,"Pesantren hidayatullah, Jl. P. HIDAYATULLAH ",1,jne,,20000.00,297000.00,,0.00,cod,317000,wait-payment,"26-01-2019 10:40"
75,SHOPBAY.ID,#SB100101,,"I7 TWS HEADSET BLUETOOTH WIRELESS","Olprine pangalasen",081244969032,mateipangalasen@gmail.com,IDN,"SULAWESI UTARA","KABUPATEN KEPULAUAN TALAUD","Kec. KABARUAN",95872,"Dusun II DESA PANGERAN ",1,jne,,20000.00,297000.00,,0.00,cod,317000,wait-payment,"25-01-2019 21:16"
76,SHOPBAY.ID,#SB100100,,"I7 TWS HEADSET BLUETOOTH WIRELESS","Foreman Hutasoit",085360821883,foremanhutasoit@gmail.com,IDN,"SUMATERA UTARA","KABUPATEN TAPANULI UTARA","Kec. SIBORONG - BORONG",22474,"Jln.sisingamangaraja no.102, disamping bank sumut siborongborong. ",1,jnt,,20000.00,297000.00,,0.00,cod,317000,wait-payment,"25-01-2019 16:04"
77,SHOPBAY.ID,#SB100099,,"I7 TWS HEADSET BLUETOOTH WIRELESS",Henderiwijaya,089643506224,Hendriwikaya778@gmail.com,IDN,"DKI JAKARTA","KOTA JAKARTA BARAT","Kec. KALI DERES",11830,"Jl.satu maret No7 pegadungan kalideres",1,jne,,20000.00,297000.00,,0.00,cod,317000,wait-payment,"25-01-2019 14:41"
78,SHOPBAY.ID,#SB100098,,"I7 TWS HEADSET BLUETOOTH WIRELESS","Tresa ",081222006922,wirantonoagus@yahoo.com,IDN,"JAWA TIMUR","KOTA SURABAYA","Kec. Rungkut",60296,"Wonorejo Permai VIII / 46",1,jne,,20000.00,297000.00,,0.00,cod,317000,wait-payment,"25-01-2019 13:15"
79,SHOPBAY.ID,#SB100097,,"I7 TWS HEADSET BLUETOOTH WIRELESS",andimangunsong,081918773436,andimangunsong666@gmail.com,IDN,"SUMATERA UTARA","KOTA MEDAN","Kec. MEDAN BARAT",20116,"jl pajak karya",1,jne,,20000.00,297000.00,,0.00,cod,317000,wait-payment,"25-01-2019 11:32"
80,SHOPBAY.ID,#SB100096,,"I7 TWS HEADSET BLUETOOTH WIRELESS","BAYU RAHMAWIJAYA DWIKUSUMA",082290211594,bayurahmawijaya@gmail.com,IDN,"SULAWESI TENGGARA","KABUPATEN KONAWE SELATAN","Kec. PALANGGA",93383,"Dusun bangun sari, desa Mekarsari kec. Palangga",1,jnt,,20000.00,297000.00,,0.00,cod,317000,wait-payment,"25-01-2019 10:34"
81,SHOPBAY.ID,#SB100095,,"I7 TWS HEADSET BLUETOOTH WIRELESS","Zainul Arisi",085934546302,enolengko@gmail.com,IDN,"NUSA TENGGARA BARAT","KABUPATEN LOMBOK TIMUR","Kec. PRINGGABAYA",83651,"Dasan tapen,desa telaga waru,kecamatan pringgabaya",1,jne,,20000.00,297000.00,,0.00,cod,317000,wait-payment,"25-01-2019 07:25"
82,SHOPBAY.ID,#SB100094,,"I7 TWS HEADSET BLUETOOTH WIRELESS","Rohmat kholis",081288183400,rohmatkholis.01@gmail.com,IDN,"DKI JAKARTA","KOTA JAKARTA TIMUR","Kec. DUREN SAWIT",13470,"YAYASAN NURUL IHSAN , Jl. I gustingurahrai buaran 1 RT 7/12 kel. Klender",1,jne,,20000.00,297000.00,,0.00,cod,317000,wait-payment,"25-01-2019 07:25"
83,SHOPBAY.ID,#SB100093,,"I7 TWS HEADSET BLUETOOTH WIRELESS","Abu Zed ",081517222222,abuzed@istiqamah.id,IDN,"SULAWESI SELATAN","KABUPATEN MAROS","Kec. MANDAI",90552,"Pesantren darul istiqamah pusat",1,jnt,,20000.00,297000.00,,0.00,cod,317000,wait-payment,"25-01-2019 04:34"
84,SHOPBAY.ID,#SB100092,,"I7 TWS HEADSET BLUETOOTH WIRELESS","Hanica Ayunia",089694861588,Hanicaayunia1@gmail.com,IDN,"SULAWESI UTARA","KOTA MANADO","Kec. MAPANGET",95252,"Perumahan Griya Paniki Indah Jl Bougenville 2 No 3",1,jnt,,20000.00,297000.00,FREEONGKIR,20000.00,cod,297000,wait-payment,"24-01-2019 20:45"
85,SHOPBAY.ID,#SB100091,,"I7 TWS HEADSET BLUETOOTH WIRELESS","Muslim baharudin",+6281266966804,Baharudin1519@gmail.com,IDN,"KEPULAUAN RIAU","KOTA B A T A M","Kec. Sagulung",29424,"Perum:BATU AJI RIAU BERTUAH TAHAP 1,Block i No 16",1,jne,,20000.00,297000.00,,0.00,cod,317000,wait-payment,"24-01-2019 19:06"
86,SHOPBAY.ID,#SB100090,,"I7 TWS HEADSET BLUETOOTH WIRELESS",testing,02312321,test@yahoo.com,IDN,RIAU,"KABUPATEN PELALAWAN","Kec. BUNUT",10234,"Jl Aja",1,jne,,20000.00,297000.00,,0.00,cod,317000,wait-payment,"24-01-2019 18:31"
87,SHOPBAY.ID,#SB100089,,"I7 TWS HEADSET BLUETOOTH WIRELESS",ssdsds,123232322,wds@gmail.com,IDN,"DI YOGYAKARTA","KABUPATEN KULON PROGO","Kec. WATES",12122,dsdsSDsd,1,jne,,20000.00,297000.00,,0.00,cod,317000,wait-payment,"24-01-2019 16:14"
88,SHOPBAY.ID,#SB100088,,"I7 TWS HEADSET BLUETOOTH WIRELESS","Risky Yohanes Ligouw",082188383570,yohanesmozartligouw@yahoo.co.id,IDN,"SULAWESI UTARA","KABUPATEN MINAHASA","Kec. PINELENG",95662,"Perumahana pineleng permai blok A no 1",1,jne,,20000.00,297000.00,,0.00,cod,317000,wait-payment,"24-01-2019 14:11"
89,SHOPBAY.ID,#SB100087,,"I7 TWS HEADSET BLUETOOTH WIRELESS","I Made Yogi Adi Nugraha",083117933097,Kadek.sidii@gmail.com,IDN,BALI,"KABUPATEN TABANAN","Kec. KEDIRI",82121,"Perumahan Griya Mulya Asri, pandak kebon",1,jne,,20000.00,297000.00,,0.00,transfer,317000,wait-payment,"24-01-2019 11:28"
90,SHOPBAY.ID,#SB100086,,"I7 TWS HEADSET BLUETOOTH WIRELESS","Koresh Kelelufna",081316228519,chorez_vhier85@yahoo.com,IDN,"PAPUA BARAT","KABUPATEN RAJA AMPAT","Kec. WAIGEO SELATAN",98482,"Waisai,komplek PSG, Kelurahan Warmasen",1,jne,,20000.00,297000.00,,0.00,cod,317000,wait-payment,"24-01-2019 10:38"
91,SHOPBAY.ID,#SB100085,,"I7 TWS HEADSET BLUETOOTH WIRELESS","Abdul aziz h e",085394928903,abdulazizoase@gmail.com,IDN,"SULAWESI TENGAH","KOTA PALU","Kec. PALU TIMUR",94114,"Jln setia budi no 9 lorong gapensi",1,jnt,,20000.00,297000.00,,0.00,cod,317000,wait-payment,"23-01-2019 19:11"
92,SHOPBAY.ID,#SB100084,,"I7 TWS HEADSET BLUETOOTH WIRELESS",Tust,0832424213,testus@yahoo.com,IDN,"DKI JAKARTA","KOTA JAKARTA TIMUR","Kec. CIPAYUNG",11470,"Jl. Testus",1,jne,,8000.00,297000.00,FREEONGKIR,20000.00,cod,285000,wait-payment,"23-01-2019 16:58"
93,SHOPBAY.ID,#SB100083,,"I7 TWS HEADSET BLUETOOTH WIRELESS",Test,08766342342,test@yahoo.com,IDN,"SUMATERA BARAT","KABUPATEN SOLOK","Kec. BUKIT SUNDI",19283,"Jl. Jilin",1,jne,,39000.00,297000.00,FREEONGKIR,20000.00,cod,316000,wait-payment,"23-01-2019 16:54"
94,SHOPBAY.ID,#SB100082,,"I7 TWS HEADSET BLUETOOTH WIRELESS","Michael Hadiyanto",0811843429,michael_hadiyanto@yahoo.com,IDN,"DKI JAKARTA","KOTA JAKARTA SELATAN","Kec. PASAR MINGGU",12520,"Cipta Bangun Jaya, jl. Ragunan no 51 pasar minggu. Dpn PD Pasar Jaya. Deretan polsek pasar minggu",1,jne,,8000.00,297000.00,,0.00,cod,305000,wait-payment,"22-01-2019 15:05"
95,SHOPBAY.ID,#SB100081,,"I7 TWS HEADSET BLUETOOTH WIRELESS",Rofi'uddin,087788363860,Ofik186lh@gmail.com,IDN,"DKI JAKARTA","KOTA JAKARTA PUSAT","Kec. GAMBIR",10110,"Lenggang jakarta",1,jne,,8000.00,297000.00,,0.00,cod,305000,wait-payment,"22-01-2019 13:08"
96,SHOPBAY.ID,#SB100080,,"I7 TWS HEADSET BLUETOOTH WIRELESS","Imam fausi",083853144441,Fauzidrt15@gmail.com,IDN,"JAWA TIMUR","KABUPATEN BANGKALAN","Kec. Socah",69161,"Dsn jaddih selatan 02",1,jnt,,30000.00,297000.00,,0.00,cod,327000,wait-payment,"22-01-2019 12:24"
97,SHOPBAY.ID,#SB100079,,"I7 TWS HEADSET BLUETOOTH WIRELESS",Imron,085363220000,Imronmanwar19@gmail.com,IDN,"SUMATERA SELATAN","KABUPATEN OGAN KOMERING ULU TIMUR","Kec. MADANG SUKU   I",32162,"Desa Rasuan Rt 01 Rw 05 ",1,jnt,,30000.00,297000.00,,0.00,cod,327000,wait-payment,"21-01-2019 23:17"
98,SHOPBAY.ID,#SB100078,,"I7 TWS HEADSET BLUETOOTH WIRELESS",Syela,081212906003,Syela.mantiri@yahoo.com,IDN,BANTEN,"KOTA TANGERANG","Kec. TANGERANG",15810,"Cluster Sapphire Jl. Kintamani Golf 13 no.10 PHG sumarecon gading serpong",1,jne,,8000.00,297000.00,,0.00,cod,305000,wait-payment,"21-01-2019 19:54"
99,SHOPBAY.ID,#SB100077,,"I7 TWS HEADSET BLUETOOTH WIRELESS","Said juttar",082291459262,Zhaid02.mmm@gmail.com,IDN,"SULAWESI SELATAN","KABUPATEN BULUKUMBA","Kec. KAJANG",92574,"Desa bontorannu kec kajang",1,jnt,,30000.00,297000.00,,0.00,transfer,327000,wait-payment,"21-01-2019 18:12"
100,SHOPBAY.ID,#SB100076,,"I7 TWS HEADSET BLUETOOTH WIRELESS",Ariani,081233349707,They.qni01@gmail.com,IDN,BALI,"KABUPATEN BADUNG","Kec. KUTA SELATAN",80363,"Jalan Pratama 77 Tanjung Benoa coconut resto depan Taman bagawan ",1,jne,,19000.00,297000.00,,0.00,cod,316000,wait-payment,"21-01-2019 16:06"
101,SHOPBAY.ID,#SB100075,,"I7 TWS HEADSET BLUETOOTH WIRELESS","Nuzulul Furqon",081217897291,furqonnuzulul24@gmail.com,IDN,"JAWA TIMUR","KABUPATEN BANGKALAN","Kec. Bangkalan",69112,"Jl.raya bancaran kamp.leban rt02/rw07",1,jne,,21000.00,297000.00,,0.00,cod,318000,wait-payment,"21-01-2019 10:56"
102,SHOPBAY.ID,#SB100074,,"I7 TWS HEADSET BLUETOOTH WIRELESS",Kurniawan,081351926099,Benyamin.kurniawan@gmail.com,IDN,"KALIMANTAN BARAT","KABUPATEN KETAPANG","Kec. SANDAI",78871,"Jln.istana jaya 2 dusun terap",1,jnt,,30000.00,297000.00,,0.00,cod,327000,wait-payment,"21-01-2019 06:54"
103,SHOPBAY.ID,#SB100073,,"I7 TWS HEADSET BLUETOOTH WIRELESS","Malun bariroh",081349606622,Riyamalun@gmail.com,IDN,"KALIMANTAN TENGAH","KABUPATEN KOTAWARINGIN TIMUR","Kec. BAAMANG",74312,"Jln Sari Gading Darat no 52",1,jnt,,30000.00,297000.00,,0.00,cod,327000,wait-payment,"20-01-2019 23:25"
104,SHOPBAY.ID,#SB100072,,"I7 TWS HEADSET BLUETOOTH WIRELESS","Hunafa Shidqi Prawira",085381265806,prawira123@gmail.com,IDN,"SUMATERA UTARA","KOTA MEDAN","Kec. MEDAN AMPLAS",20147,"Jl. Bajak 2 gg. Cengkeh no. 75g",1,jne,,27000.00,297000.00,,0.00,cod,324000,wait-payment,"20-01-2019 20:24"
105,SHOPBAY.ID,#SB100071,,"I7 TWS HEADSET BLUETOOTH WIRELESS","Deden Sutrisna ",081284138811,dedenbrennan@gmail.com,IDN,BALI,"KOTA DENPASAR","Kec. DENPASAR BARAT",80114,"a/n : Deden Brennan  Alamat : Appartement Ganidha  Jl. Gunung soputan 1a no 5. Room A 101 Denpasar - 80119. Denpasar - Bali.(081284138811) Reg Note : Tolong kurir SMS/telp jika barang Sudah sampe!",1,jne,,19000.00,297000.00,,0.00,cod,316000,wait-payment,"20-01-2019 12:59"
106,SHOPBAY.ID,#SB100070,,"I7 TWS HEADSET BLUETOOTH WIRELESS","Khayyul Imdad",081325764222,imdadkhayyul@gmail.com,IDN,"JAWA TENGAH","KABUPATEN JEPARA","Kec. WELAHAN",59464,"Kalipucangkulon 006/003",1,jnt,,30000.00,297000.00,,0.00,transfer,327000,wait-payment,"20-01-2019 08:44"
107,SHOPBAY.ID,#SB100069,,"I7 TWS HEADSET BLUETOOTH WIRELESS","Oji Widaryanto",081281180407,Ojiqbord@yahoo.com,IDN,"JAWA BARAT","KABUPATEN BEKASI","Kec. TAMBUN UTARA",17510,"Bumi Anggrek blok R180, Karang Satria, Tambun Utara, Bekasi",1,jnt,,30000.00,297000.00,,0.00,transfer,327000,wait-payment,"20-01-2019 08:21"
108,SHOPBAY.ID,#SB100068,,"I7 TWS HEADSET BLUETOOTH WIRELESS","Achmad Maulizal",081210668545,ach.maulizal@gmail.com,IDN,"DKI JAKARTA","KOTA JAKARTA TIMUR","Kec. DUREN SAWIT",13460,"Jl. Delima 3 No. K19 Klender Buaran",1,jne,,8000.00,297000.00,,0.00,cod,305000,wait-payment,"19-01-2019 19:36"
109,SHOPBAY.ID,#SB100067,,"I7 TWS HEADSET BLUETOOTH WIRELESS",Ariwijaya,08125952910,ariwijaya754@gmail.com,IDN,"KALIMANTAN TIMUR","KOTA SAMARINDA","Kec. SAMARINDA ILIR",75114,"Jl.sultan alimuddin no.16 rt.25 kelurahan selili",1,jnt,,30000.00,297000.00,,0.00,cod,327000,wait-payment,"19-01-2019 08:40"
110,SHOPBAY.ID,#SB100066,,"I7 TWS HEADSET BLUETOOTH WIRELESS","Redi sunandar",081288117677,redisunandar@gmail.com,IDN,"KALIMANTAN BARAT","KABUPATEN KAPUAS HULU","Kec. PUTUSSIBAU",78711,"Samsat Putussibau jalan pendidikan no.1 Putussibau kel.putussibau kota lec.putussibau utara ",1,jnt,,30000.00,297000.00,FREEONGKIR,20000.00,cod,307000,wait-payment,"19-01-2019 07:41"
111,SHOPBAY.ID,#SB100065,,"I7 TWS HEADSET BLUETOOTH WIRELESS","Adih setiadi",082339293378,Adisetiadi299@gmail.com,IDN,"NUSA TENGGARA BARAT","KOTA BIMA","Kec. RASANAE TIMUR",841119,"Jln,terusan sape kodo2 rt02/01 rasanae timur",1,jnt,,30000.00,297000.00,,0.00,cod,327000,wait-payment,"19-01-2019 07:28"
112,SHOPBAY.ID,#SB100064,,"I7 TWS HEADSET BLUETOOTH WIRELESS","ode rajab",082248466916,oderajab1707@gmail.com,IDN,PAPUA,"KABUPATEN KEPULAUAN YAPEN","Kec. YAPEN TIMUR",98252,awunawai,1,jnt,,30000.00,297000.00,,0.00,cod,327000,wait-payment,"19-01-2019 03:06"
113,SHOPBAY.ID,#SB100063,,"I7 TWS HEADSET BLUETOOTH WIRELESS","Hardiantaa ginting",081282071431,herdiantaginting60@gmail.com,IDN,"DKI JAKARTA","KOTA JAKARTA PUSAT","Kec. KEMAYORAN",09809,"Jln bendungan jago gang teratai 1 no 4",1,jne,,8000.00,297000.00,,0.00,cod,305000,wait-payment,"19-01-2019 01:18"
114,SHOPBAY.ID,#SB100062,,"I7 TWS HEADSET BLUETOOTH WIRELESS",Yanti,085270978080,anosionzalukhu@gmail.com,IDN,"SUMATERA UTARA","KABUPATEN NIAS UTARA","Kec. LAHEWA",22856,"JL. IDANONDRAWA LOAWOWAGA DEPAN PUSTU IDANONDRAWA",1,jnt,,30000.00,297000.00,,0.00,cod,327000,wait-payment,"18-01-2019 11:27"
115,SHOPBAY.ID,#SB100061,,"I7 TWS HEADSET BLUETOOTH WIRELESS",Harvin,"0821 1208 8895",harvinsumampouw82@gmail.com,IDN,PAPUA,"KABUPATEN MIMIKA","Kec. MIMIKA  BARU",99910,"Jl.Yos Sudarso No.5",1,jnt,,30000.00,297000.00,,0.00,cod,327000,wait-payment,"18-01-2019 06:57"
116,SHOPBAY.ID,#SB100060,,"I7 TWS HEADSET BLUETOOTH WIRELESS","Andes Mariyanto",082338185899,andesmariyanto55@gmail.com,IDN,BALI,"KABUPATEN BADUNG","Kec. KUTA SELATAN",8361,"Jln.uluwatu kelan-kedonganan gg.soka 1 No.09",1,jne,,19000.00,297000.00,,0.00,cod,316000,wait-payment,"18-01-2019 06:25"
117,SHOPBAY.ID,#SB100059,,"I7 TWS HEADSET BLUETOOTH WIRELESS","Muhammad shaleh",0812-1209-6012,shalehalimin90@gmail.com,IDN,"SULAWESI TENGAH","KABUPATEN MOROWALI","Kec. BUNGKU TENGAH",92545,"Desa keurea",1,jnt,,30000.00,297000.00,,0.00,cod,327000,wait-payment,"17-01-2019 12:42"
118,SHOPBAY.ID,#SB100058,,"I7 TWS HEADSET BLUETOOTH WIRELESS",suparto,0895335996550,pirtikpanhoten@gmail.com,IDN,"SUMATERA UTARA","KOTA MEDAN","Kec. MEDAN TEMBUNG",20224,"jln pukat 1 komplek junction 43a",1,jne,,27000.00,297000.00,,0.00,cod,324000,wait-payment,"16-01-2019 22:27"
119,SHOPBAY.ID,#SB100057,,"I7 TWS HEADSET BLUETOOTH WIRELESS",budi,085251466666,imoet.budi@gmail.com,IDN,"KALIMANTAN TIMUR","KABUPATEN PASER","Kec. TANAH GROGOT",76211,"jl.DI.Panjaitan gang batu alam RT02 RW03 Desa Tapis ",1,jnt,,30000.00,297000.00,,0.00,cod,327000,wait-payment,"16-01-2019 20:36"
120,SHOPBAY.ID,#SB100056,,"I7 TWS HEADSET BLUETOOTH WIRELESS","Daniel octovan",081241218299,Multimediaku266@yahoo.co.id,IDN,PAPUA,"KOTA JAYAPURA","Kec. ABEPURA",90001,"Jln proyek masa indah dpn lapangan bola abhokhow waena distrik heram kel yabansai waena jayapura papua",1,jnt,,30000.00,297000.00,,0.00,cod,327000,wait-payment,"16-01-2019 16:04"
121,SHOPBAY.ID,#SB100055,,"I7 TWS HEADSET BLUETOOTH WIRELESS",Sofyan,0811526532,Kausarpalangkaraya@yahoo.com,IDN,"KALIMANTAN TENGAH","KOTA PALANGKA RAYA","Kec. PAHANDUT",73111,"Jalan darmosugondo 52 palangkaraya",1,jnt,,30000.00,297000.00,,0.00,cod,624000,wait-payment,"16-01-2019 11:43"
122,SHOPBAY.ID,#SB100054,,"I7 TWS HEADSET BLUETOOTH WIRELESS",Putraleo,081395340685,Putraleozendt@gmail.com,IDN,"SUMATERA UTARA","KOTA MEDAN","Kec. MEDAN POLONIA",20152,"Jl. Muara takus samping kantor pos medan polonia",1,jne,,27000.00,297000.00,,0.00,cod,324000,wait-payment,"16-01-2019 10:10"
123,SHOPBAY.ID,#SB100053,,"I7 TWS HEADSET BLUETOOTH WIRELESS","Daeng Iqbal",085345241456,Samsung.sst6776@gmail.com,IDN,"KALIMANTAN BARAT","KABUPATEN KUBU RAYA","Kec. TELUK PAKEDAI",78383,"Jln pematang mas desa selat remis Rt03/03 no30 kec teluk pakedai",1,jne,,49000.00,297000.00,,0.00,cod,346000,wait-payment,"15-01-2019 23:55"
124,SHOPBAY.ID,#SB100052,,"I7 TWS HEADSET BLUETOOTH WIRELESS","andul mutakhir",081342927602,airah277@gmail.com,IDN,"SULAWESI TENGGARA","KOTA KENDARI","Kec. MANDONGA",93111,"jln. malik raya by pass wisma putri dara samping graha pena kendari pos",1,jne,,45000.00,297000.00,,0.00,cod,342000,wait-payment,"15-01-2019 17:57"
125,SHOPBAY.ID,#SB100051,,"I7 TWS HEADSET BLUETOOTH WIRELESS","Olprine Pangalasen ",081244969032,mateipangalasen@gmail.com,IDN,"SULAWESI UTARA","KABUPATEN KEPULAUAN TALAUD","Kec. KABARUAN",95872,"Dusun II desa Pangeran Kec. Kabaruan",1,jne,,69000.00,297000.00,,0.00,cod,366000,wait-payment,"15-01-2019 16:32"
126,SHOPBAY.ID,#SB100050,,"I7 TWS HEADSET BLUETOOTH WIRELESS","Ahmad subhan",08989885521,achmadsubhan272@gmail.com,IDN,"JAWA TENGAH","KABUPATEN PEMALANG","Kec. RANDUDONGKAL",52353,"Ds. Semingkir Rt 01/02",1,jne,,23000.00,297000.00,,0.00,cod,320000,wait-payment,"15-01-2019 07:51"
127,SHOPBAY.ID,#SB100049,,"I7 TWS HEADSET BLUETOOTH WIRELESS","Ipung maulana",085349703277,kentopunk88@gmail.com,IDN,"KALIMANTAN TIMUR","KABUPATEN BERAU","Kec.  TANJUNG REDEB",773111,"Karang Ambon,GG swadayya",1,jne,,56000.00,297000.00,,0.00,transfer,353000,wait-payment,"15-01-2019 07:10"
128,SHOPBAY.ID,#SB100048,,"I7 TWS HEADSET BLUETOOTH WIRELESS","Amri Gustian",085211498011,eralsaputra12@gmail.com,IDN,RIAU,"KABUPATEN INDRAGIRI HULU","Kec. RENGAT BARAT",29351,"JL.lintas timur pematang rebah/gang KEMUNING pematang rebah",1,jnt,,30000.00,297000.00,,0.00,cod,327000,wait-payment,"14-01-2019 22:50"
129,SHOPBAY.ID,#SB100047,,"I7 TWS HEADSET BLUETOOTH WIRELESS","Alfons Laia",082273611493,alfonslaia900@gmail.com,IDN,"SUMATERA UTARA","KABUPATEN NIAS","Kec. GUNUNG SITOLI",22815,"Paroki St. Maria BPB, Jln Karet no. 33a",1,jnt,,30000.00,297000.00,,0.00,cod,327000,wait-payment,"14-01-2019 20:33"
130,SHOPBAY.ID,#SB100046,,"I7 TWS HEADSET BLUETOOTH WIRELESS",Rosdiana,085224436464,dian.azkaghaniabqari@yahoo.co.id,IDN,"JAWA BARAT","KABUPATEN TASIKMALAYA","Kec. SINGAPARNA",46414,"Kantor Kecamatn Singaparna jl. Bojongkoneng Singaparna Tasikmalaya",1,jne,,15000.00,297000.00,,0.00,cod,312000,wait-payment,"14-01-2019 12:20"
131,SHOPBAY.ID,#SB100045,,"I7 TWS HEADSET BLUETOOTH WIRELESS",Yonga,085216796363,Yongadunhill@gmail.com,IDN,"DKI JAKARTA","KOTA JAKARTA UTARA","Kec. PENJARINGAN",14450,"Jln c no 73a",1,jne,,8000.00,297000.00,,0.00,transfer,305000,wait-payment,"14-01-2019 09:06"
132,SHOPBAY.ID,#SB100039,,"I7 TWS HEADSET BLUETOOTH WIRELESS",mahyanuddin,081360362251,spulim43@gmail.com,IDN,ACEH,"KOTA LANGSA","Kec. ",24415,"jln perumnas desa birem puntong (kantor kpu kota langsa)",1,jne,,20000.00,297000.00,,0.00,cod,317000,wait-payment,"13-01-2019 17:59"
133,SHOPBAY.ID,#SB100038,,"I7 TWS HEADSET BLUETOOTH WIRELESS","Vieko Rompas",082290460133,mocosz.13@gmail.com,IDN,"SULAWESI UTARA","KOTA BITUNG","Kec. ",95514,"PT.Indofoot sukses makmur TBK cabang bitung",1,jne,,20000.00,297000.00,,0.00,transfer,317000,wait-payment,"13-01-2019 16:29"
134,SHOPBAY.ID,#SB100037,,"I7 TWS HEADSET BLUETOOTH WIRELESS","Andi Muhammad Rizal Wawo ",085234562627,rizal.wawo@icloud.com,IDN,"SULAWESI SELATAN","KOTA MAKASSAR","Kec. ",90231,"Jl. Pengayoman kompleks Bougenville blok. C No.1",1,jne,,20000.00,297000.00,,0.00,cod,317000,wait-payment,"13-01-2019 13:32"
135,SHOPBAY.ID,#SB100036,,"I7 TWS HEADSET BLUETOOTH WIRELESS","Reza maulana",08175910133,Rezamaualan@gmail.com,IDN,"JAWA TIMUR","KOTA MALANG","Kec. ",65139,"Jl.sawunggaling no 77",1,jne,,20000.00,297000.00,,0.00,cod,317000,wait-payment,"12-01-2019 22:42"
136,SHOPBAY.ID,#SB100035,,"I7 TWS HEADSET BLUETOOTH WIRELESS",Harman,085398087772,pnpm.barat@gmail.com,IDN,"SULAWESI SELATAN","KABUPATEN BONE","Kec. ",92700,"Jalan lapawawoi karaeng sigeri lorong persatuan samping mesjid supukalau",1,jne,,20000.00,297000.00,,0.00,cod,317000,wait-payment,"12-01-2019 03:08"
137,SHOPBAY.ID,#SB100034,,"I7 TWS HEADSET BLUETOOTH WIRELESS","Deden Sutrisna ",081284138811,dedenbrennan@gmail.com,IDN,"DKI JAKARTA","KOTA JAKARTA PUSAT","Kec. ",10240,"Appartement Citylofts Citywalk unit.2822 Sudirman Jakarta Pusat",1,jne,,20000.00,297000.00,,0.00,cod,317000,wait-payment,"11-01-2019 22:19"
138,SHOPBAY.ID,#SB100033,,"I7 TWS HEADSET BLUETOOTH WIRELESS","Kurniadi Syahputra",085271010121,Kurniadisyah@gmail.com,IDN,RIAU,"KOTA PEKANBARU","Kec. ",28125,"Jl.Air Dingin Perumahan D'Anugrah Block E7",1,jne,,20000.00,297000.00,,0.00,cod,317000,wait-payment,"11-01-2019 20:50"
139,SHOPBAY.ID,#SB100032,,"I7 TWS HEADSET BLUETOOTH WIRELESS","Jl.Yos Sudarso No.5",+6282112088895,harvinsumampouw82@gmail.com,IDN,PAPUA,"KABUPATEN MIMIKA","Kec. ",99910,"Jl.Yos Sudarso No.5",1,jne,,20000.00,297000.00,,0.00,cod,317000,wait-payment,"11-01-2019 16:54"
140,SHOPBAY.ID,#SB100031,,"I7 TWS HEADSET BLUETOOTH WIRELESS","Nemin. ",081362635477,nemin.aminudin97@gmail.com,IDN,ACEH,"KABUPATEN SIMEULUE","Kec. ",83893,"Labuhan bakti ",1,jne,,20000.00,297000.00,,0.00,cod,317000,wait-payment,"11-01-2019 16:15"
141,SHOPBAY.ID,#SB100030,,"I7 TWS HEADSET BLUETOOTH WIRELESS",Susandi,085247020767,Shandyselow@gmail.com,IDN,"KALIMANTAN BARAT","KOTA PONTIANAK","Kec. ",78235,"Tj,raya 1 kampung dalam belakang mesjid jami",1,jne,,20000.00,297000.00,,0.00,cod,317000,wait-payment,"11-01-2019 09:17"
142,SHOPBAY.ID,#SB100029,,"I7 TWS HEADSET BLUETOOTH WIRELESS","Dede purwanto",087743554323,dedepurwanto77249@gmail.com,IDN,"JAWA BARAT","KABUPATEN BANDUNG","Kec. ",40614,"Jl soekarnohatta no 851 cibiru depan stikes bhakti kencana bandung",1,jnt,,20000.00,297000.00,,0.00,cod,317000,wait-payment,"10-01-2019 23:50"
143,SHOPBAY.ID,#SB100021,,"I7 TWS HEADSET BLUETOOTH WIRELESS","Bintang Suryo",08972332342,bintang.suryo@gmail.com,IDN,BANTEN,"KOTA TANGERANG SELATAN","Kec. ",15417,"Jalan Kemuning 5, Pamulang Park Residence Blok K24, Pamulang Barat",1,jnt,,20000.00,299000.00,FREEONGKIR,20000.00,transfer,299000,wait-payment,"09-01-2019 11:55"
144,SHOPBAY.ID,#SB100019,,"I7 TWS HEADSET BLUETOOTH WIRELESS",Syapri,08126044852,syapri.lawyer@gmail.com,IDN,"SUMATERA UTARA","KABUPATEN DELI SERDANG","Kec. ",20371,"Jalan Beringin Pasar V No. 16 Tembung, Percut Sei Tua ",1,jnt,,20000.00,299000.00,,0.00,cod,319000,delivery-process,"08-01-2019 22:32"
