"type status (follow the rule) : "
"Code => COD --- others payment method"
"1 => Menunggu Konfirmasi --- Menunggu Pembayaran"
"2 => Konfirmasi Pesanan --- Pembayaran Sukses"
"3 => Proses Pengiriman --- Proses Pengiriman"
"4 => Pembayaran Diterima & Pengiriman Selesai --- Pesanan Diterima"

No,Subdomain,ID,"Order Code",Email,Date,Status
1,adaadaaja,249,#SB100249,nikoriansyah@gmail.com,"20-02-2019 23:29",4
2,nikoganteng,248,#SB100248,agusdwi89@gmail.com,"20-02-2019 23:20",4
3,nikoganteng,247,#SB100247,nikoriansyah@gmail.com,"20-02-2019 22:48",4
4,nikoganteng,246,#SB100246,nikoriansyah@gmail.com,"20-02-2019 22:41",4
5,nikoganteng,245,#SB100245,dsdsds@gmail.com,"20-02-2019 22:36",4
6,bag,244,#SB100244,agusdwi89@gmail.com,"20-02-2019 21:28",4
7,bag,243,#SB100243,dzahindigital@gmail.com,"20-02-2019 21:05",4
8,bag,242,#SB100242,agusdwi89@gmail.com,"20-02-2019 20:58",4
9,bag,241,#SB100241,agusdwi89@gmail.com,"18-02-2019 07:22",4
10,bag,240,#SB100240,Fluflud@gmail.com,"17-02-2019 20:55",4
11,bag,239,#SB100239,agusdwi89@gmail.com,"17-02-2019 19:35",4
12,bag,238,#SB100238,agusdwi89@gmail.com,"17-02-2019 19:15",4
13,bag,237,#SB100237,canoopix@gmail.com,"17-02-2019 19:14",4
14,www,235,#SB100235,agusdwi89@gmail.com,"13-02-2019 09:22",4
15,www,234,#SB100234,Djdjdjdjdj@jdjdjd.com,"13-02-2019 08:15",4
16,www,233,#SB100233,Agus@gmail.com,"12-02-2019 23:46",4
17,www,232,#SB100232,agusdwi89@gmail.com,"12-02-2019 23:37",4
18,www,231,#SB100231,agusdwi89@gmail.com,"12-02-2019 23:28",4
19,www,230,#SB100230,agusdwi89@gmail.com,"12-02-2019 23:27",4
20,www,229,#SB100229,dzahindigital@gmail.com,"12-02-2019 23:01",4
21,www,228,#SB100228,agusdwi89@gmail.com,"12-02-2019 22:59",4
22,www,227,#SB100227,dzahindigital@gmail.com,"12-02-2019 22:55",4
23,www,226,#SB100226,agusdwi89@gmail.com,"12-02-2019 22:36",4
24,www,225,#SB100225,agusdwi89@gmail.com,"12-02-2019 22:26",4
25,www,224,#SB100224,agusdwi89@gmail.com,"12-02-2019 22:22",4
26,www,223,#SB100223,agusdwi89@gmail.com,"12-02-2019 22:16",4
27,www,222,#SB100222,agusdwi89@gmail.com,"12-02-2019 21:54",4
28,www,221,#SB100221,agusdwi89@gmail.com,"12-02-2019 21:39",4
29,www,220,#SB100220,Kimkimgracella@gmail.com,"11-02-2019 11:10",4
30,www,219,#SB100219,Setiamanbate03@gmail.com,"11-02-2019 10:51",4
31,www,218,#SB100218,Boneng@gmail.com,"11-02-2019 08:11",4
32,www,217,#SB100217,Saicandra92@gmail.com,"11-02-2019 00:51",4
33,www,216,#SB100216,Zainurrahman392@gmail.com,"10-02-2019 22:45",4
34,www,215,#SB100215,Tardhichung@gmail.com,"10-02-2019 18:20",4
35,www,214,#SB100214,pagaryasa@gmail.com,"10-02-2019 17:55",4
36,www,213,#SB100213,inggridyuliani17@gmail.com,"10-02-2019 04:45",4
37,www,212,#SB100212,putraindrahugen@gmail.com,"10-02-2019 04:42",4
38,www,211,#SB100211,brantakan171@gmail.com,"10-02-2019 02:03",4
39,www,210,#SB100210,aswandana163@gmail.com,"10-02-2019 01:08",4
40,www,209,#SB100209,Sonnymc19@gmail.com,"09-02-2019 23:42",4
41,www,208,#SB100208,Nisrinafadilaa@gmail.com,"09-02-2019 21:41",4
42,www,207,#SB100207,Christian.wijaya@lautan-luas.com,"09-02-2019 20:10",4
43,www,206,#SB100206,Jack.dnata@gmail.com,"09-02-2019 19:55",4
44,www,205,#SB100205,agusfarangga8699@gmail.com,"09-02-2019 19:36",4
45,www,204,#SB100204,Yokiiabdulaziz58@gmail.com,"09-02-2019 18:10",4
46,www,203,#SB100203,Sirajuddins910@gmail.com,"09-02-2019 15:53",4
47,www,202,#SB100202,lielawardhy@gmail.com,"09-02-2019 14:20",4
48,www,201,#SB100201,Agustinushendiandre@gmail.com,"09-02-2019 11:26",4
49,www,200,#SB100200,tanzilandrians11@gmail.com,"09-02-2019 10:39",4
50,www,199,#SB100199,Firdariana72@gmail.com,"09-02-2019 05:43",4
51,www,198,#SB100198,fauzanhakim.fh77@gmail.com,"09-02-2019 00:16",4
52,www,197,#SB100197,mustanzierarya@gmail.com,"08-02-2019 15:06",4
53,www,196,#SB100196,luqmanelhakiem1924@gmail.com,"08-02-2019 11:08",4
54,www,195,#SB100195,Falahy7696@gmail.com,"08-02-2019 11:03",4
55,www,194,#SB100194,achmad.syaefudin27@gmail.com,"08-02-2019 10:20",4
56,www,193,#SB100193,dadipahlevy@yahoo.com,"08-02-2019 08:28",4
57,www,192,#SB100192,Ezzajhie@gmail.com,"08-02-2019 06:57",4
58,www,191,#SB100191,Debimelon338@gmail.com,"08-02-2019 03:39",4
59,www,190,#SB100190,Suryabaskara88@gmail.com,"08-02-2019 01:59",4
60,www,189,#SB100189,Ahmadjaka1113@gmail.com,"08-02-2019 01:39",4
61,www,188,#SB100188,WayanGalang65@Gmail.com,"07-02-2019 18:17",4
62,www,187,#SB100187,rohmatkholis.01@gmaal.com,"07-02-2019 17:38",4
63,www,186,#SB100186,ray.nizar26@gmail.com,"07-02-2019 16:35",4
64,www,185,#SB100185,Feryagam21@gmail.com,"07-02-2019 15:09",4
65,www,184,#SB100184,msoleh272@gmail.com,"07-02-2019 14:04",4
66,www,183,#SB100183,Sorayamanurung2@gmail.com,"07-02-2019 08:42",4
67,www,182,#SB100182,guna_kusnandar@yahoo.co.id,"07-02-2019 07:22",4
68,www,181,#SB100181,mirwan88@ymail.com,"07-02-2019 02:09",4
69,www,180,#SB100180,denilsonsapari09@gmail.com,"06-02-2019 22:11",4
70,www,179,#SB100179,rzulfifa@gmail.com,"06-02-2019 19:14",4
71,www,178,#SB100178,sdsd@gmail.com,"06-02-2019 17:15",4
72,www,177,#SB100177,muhamadrenald@gmail.com,"06-02-2019 16:42",4
73,www,176,#SB100176,Dawoherliana@yahoo.com,"06-02-2019 11:20",4
74,www,175,#SB100175,amrizal.rengganis15@gmail.com,"06-02-2019 01:53",4
75,www,174,#SB100174,andisubair88@gmail.com,"05-02-2019 20:49",4
76,www,173,#SB100173,dhex.mountain@gmail.com,"05-02-2019 19:07",4
77,www,172,#SB100172,Herrygama15@gmail.com,"05-02-2019 18:35",4
78,www,171,#SB100171,Chandravhica1626@gmail.com,"05-02-2019 18:25",4
79,www,170,#SB100170,ariffuddin79139@gmail.com,"05-02-2019 16:32",4
80,www,169,#SB100169,achmadrijalkholilurr@gmail.com,"05-02-2019 14:45",4
81,www,168,#SB100168,defretes.andre@gmail.com,"05-02-2019 14:44",4
82,www,167,#SB100167,delahutabarat124@yahoo.com,"05-02-2019 09:46",4
83,www,166,#SB100166,Ardi_yantosi@yahoo.co.id,"05-02-2019 08:20",4
84,www,165,#SB100165,sumarditanjung@yahoo.co.id,"05-02-2019 08:07",4
85,www,164,#SB100164,rizkyaulia1919@gmail.com,"04-02-2019 18:48",4
86,www,163,#SB100163,bigsolon0808@gmail.com,"04-02-2019 17:46",4
87,www,162,#SB100162,nguraharya582@gmail.com,"04-02-2019 14:42",4
88,www,161,#SB100161,chandrapanto86@gmail.com,"04-02-2019 10:20",4
89,www,160,#SB100160,Bayhoki@gmail.com,"04-02-2019 02:23",4
90,www,159,#SB100159,cwijaya233@gmail.com,"04-02-2019 00:14",4
91,www,158,#SB100158,abangmirza71@gmail.com,"03-02-2019 21:46",4
92,www,157,#SB100157,sudirmanrsn@gmail.com,"03-02-2019 16:48",4
93,www,156,#SB100156,sudirmanrsn@gmail.com,"03-02-2019 13:39",4
94,www,155,#SB100155,herwinhou@gmail.com,"03-02-2019 13:17",4
95,www,154,#SB100154,djulkifli.djulkifli01@gmail.com,"03-02-2019 12:54",4
96,www,153,#SB100153,Haryonosapii1304@gmail.com,"03-02-2019 07:29",4
97,www,152,#SB100152,Nugrahaspddendy@gmail.com,"02-02-2019 21:19",4
98,www,151,#SB100151,udinheang.hino@gmail.com,"02-02-2019 19:01",4
99,www,150,#SB100150,ivo.viga.iv@gmail.com,"02-02-2019 18:37",4
100,www,149,#SB100149,puturoly@gmail.com,"02-02-2019 13:19",4
101,www,148,#SB100148,ahmadzoulkifli023@gmail.com,"02-02-2019 02:12",4
102,www,147,#SB100147,akmalkurniawan095@gmail.com,"02-02-2019 01:00",4
103,www,146,#SB100146,Hasbitkj7@gmail.com,"01-02-2019 21:58",4
104,www,145,#SB100145,christian.sampaleng060995@gmail.com,"01-02-2019 21:04",4
105,www,144,#SB100144,Normannikodemus77@gmail.com,"01-02-2019 19:14",4
106,www,143,#SB100143,Daniumar415@gmail.com,"01-02-2019 17:55",4
107,www,142,#SB100142,Adityaputraa.a@gmail.com,"01-02-2019 13:36",4
108,www,141,#SB100141,Miamardison3@gmail.com,"01-02-2019 11:30",4
109,www,140,#SB100140,muh.subri96@gmail.com,"01-02-2019 02:36",4
