"type status (follow the rule) : wait-payment / payment-success / delivery-process / completed"
No,Subdomain,ID,"Order Code",Email,Date,Status
1,bag,241,#SB100241,agusdwi89@gmail.com,"18-02-2019 07:22",payment-success
2,bag,240,#SB100240,Fluflud@gmail.com,"17-02-2019 20:55",payment-success
3,bag,239,#SB100239,agusdwi89@gmail.com,"17-02-2019 19:35",payment-success
4,bag,238,#SB100238,agusdwi89@gmail.com,"17-02-2019 19:15",payment-success
5,bag,237,#SB100237,canoopix@gmail.com,"17-02-2019 19:14",payment-success
6,www,235,#SB100235,agusdwi89@gmail.com,"13-02-2019 09:22",payment-success
7,www,234,#SB100234,Djdjdjdjdj@jdjdjd.com,"13-02-2019 08:15",payment-success
8,www,233,#SB100233,Agus@gmail.com,"12-02-2019 23:46",payment-success
9,www,232,#SB100232,agusdwi89@gmail.com,"12-02-2019 23:37",payment-success
10,www,231,#SB100231,agusdwi89@gmail.com,"12-02-2019 23:28",payment-success
11,www,230,#SB100230,agusdwi89@gmail.com,"12-02-2019 23:27",payment-success
12,www,229,#SB100229,dzahindigital@gmail.com,"12-02-2019 23:01",payment-success
13,www,228,#SB100228,agusdwi89@gmail.com,"12-02-2019 22:59",payment-success
14,www,227,#SB100227,dzahindigital@gmail.com,"12-02-2019 22:55",payment-success
15,www,226,#SB100226,agusdwi89@gmail.com,"12-02-2019 22:36",payment-success
16,www,225,#SB100225,agusdwi89@gmail.com,"12-02-2019 22:26",payment-success
17,www,224,#SB100224,agusdwi89@gmail.com,"12-02-2019 22:22",payment-success
18,www,223,#SB100223,agusdwi89@gmail.com,"12-02-2019 22:16",payment-success
19,www,222,#SB100222,agusdwi89@gmail.com,"12-02-2019 21:54",payment-success
20,www,221,#SB100221,agusdwi89@gmail.com,"12-02-2019 21:39",payment-success
21,www,220,#SB100220,Kimkimgracella@gmail.com,"11-02-2019 11:10",payment-success
22,www,219,#SB100219,Setiamanbate03@gmail.com,"11-02-2019 10:51",payment-success
23,www,218,#SB100218,Boneng@gmail.com,"11-02-2019 08:11",payment-success
24,www,217,#SB100217,Saicandra92@gmail.com,"11-02-2019 00:51",payment-success
25,www,216,#SB100216,Zainurrahman392@gmail.com,"10-02-2019 22:45",payment-success
26,www,215,#SB100215,Tardhichung@gmail.com,"10-02-2019 18:20",payment-success
27,www,214,#SB100214,pagaryasa@gmail.com,"10-02-2019 17:55",payment-success
28,www,213,#SB100213,inggridyuliani17@gmail.com,"10-02-2019 04:45",payment-success
29,www,212,#SB100212,putraindrahugen@gmail.com,"10-02-2019 04:42",payment-success
30,www,211,#SB100211,brantakan171@gmail.com,"10-02-2019 02:03",payment-success
31,www,210,#SB100210,aswandana163@gmail.com,"10-02-2019 01:08",payment-success
32,www,209,#SB100209,Sonnymc19@gmail.com,"09-02-2019 23:42",payment-success
33,www,208,#SB100208,Nisrinafadilaa@gmail.com,"09-02-2019 21:41",payment-success
34,www,207,#SB100207,Christian.wijaya@lautan-luas.com,"09-02-2019 20:10",payment-success
35,www,206,#SB100206,Jack.dnata@gmail.com,"09-02-2019 19:55",payment-success
36,www,205,#SB100205,agusfarangga8699@gmail.com,"09-02-2019 19:36",payment-success
37,www,204,#SB100204,Yokiiabdulaziz58@gmail.com,"09-02-2019 18:10",payment-success
38,www,203,#SB100203,Sirajuddins910@gmail.com,"09-02-2019 15:53",payment-success
39,www,202,#SB100202,lielawardhy@gmail.com,"09-02-2019 14:20",payment-success
40,www,201,#SB100201,Agustinushendiandre@gmail.com,"09-02-2019 11:26",payment-success
41,www,200,#SB100200,tanzilandrians11@gmail.com,"09-02-2019 10:39",payment-success
42,www,199,#SB100199,Firdariana72@gmail.com,"09-02-2019 05:43",payment-success
43,www,198,#SB100198,fauzanhakim.fh77@gmail.com,"09-02-2019 00:16",payment-success
44,www,197,#SB100197,mustanzierarya@gmail.com,"08-02-2019 15:06",payment-success
45,www,196,#SB100196,luqmanelhakiem1924@gmail.com,"08-02-2019 11:08",payment-success
46,www,195,#SB100195,Falahy7696@gmail.com,"08-02-2019 11:03",payment-success
47,www,194,#SB100194,achmad.syaefudin27@gmail.com,"08-02-2019 10:20",payment-success
48,www,193,#SB100193,dadipahlevy@yahoo.com,"08-02-2019 08:28",payment-success
49,www,192,#SB100192,Ezzajhie@gmail.com,"08-02-2019 06:57",payment-success
50,www,191,#SB100191,Debimelon338@gmail.com,"08-02-2019 03:39",payment-success
51,www,190,#SB100190,Suryabaskara88@gmail.com,"08-02-2019 01:59",payment-success
52,www,189,#SB100189,Ahmadjaka1113@gmail.com,"08-02-2019 01:39",payment-success
53,www,188,#SB100188,WayanGalang65@Gmail.com,"07-02-2019 18:17",payment-success
54,www,187,#SB100187,rohmatkholis.01@gmaal.com,"07-02-2019 17:38",payment-success
55,www,186,#SB100186,ray.nizar26@gmail.com,"07-02-2019 16:35",payment-success
56,www,185,#SB100185,Feryagam21@gmail.com,"07-02-2019 15:09",payment-success
57,www,184,#SB100184,msoleh272@gmail.com,"07-02-2019 14:04",payment-success
58,www,183,#SB100183,Sorayamanurung2@gmail.com,"07-02-2019 08:42",payment-success
59,www,182,#SB100182,guna_kusnandar@yahoo.co.id,"07-02-2019 07:22",payment-success
60,www,181,#SB100181,mirwan88@ymail.com,"07-02-2019 02:09",payment-success
61,www,180,#SB100180,denilsonsapari09@gmail.com,"06-02-2019 22:11",payment-success
62,www,179,#SB100179,rzulfifa@gmail.com,"06-02-2019 19:14",payment-success
63,www,178,#SB100178,sdsd@gmail.com,"06-02-2019 17:15",payment-success
64,www,177,#SB100177,muhamadrenald@gmail.com,"06-02-2019 16:42",payment-success
65,www,176,#SB100176,Dawoherliana@yahoo.com,"06-02-2019 11:20",payment-success
66,www,175,#SB100175,amrizal.rengganis15@gmail.com,"06-02-2019 01:53",payment-success
67,www,174,#SB100174,andisubair88@gmail.com,"05-02-2019 20:49",payment-success
68,www,173,#SB100173,dhex.mountain@gmail.com,"05-02-2019 19:07",payment-success
69,www,172,#SB100172,Herrygama15@gmail.com,"05-02-2019 18:35",payment-success
70,www,171,#SB100171,Chandravhica1626@gmail.com,"05-02-2019 18:25",payment-success
71,www,170,#SB100170,ariffuddin79139@gmail.com,"05-02-2019 16:32",payment-success
72,www,169,#SB100169,achmadrijalkholilurr@gmail.com,"05-02-2019 14:45",payment-success
73,www,168,#SB100168,defretes.andre@gmail.com,"05-02-2019 14:44",payment-success
74,www,167,#SB100167,delahutabarat124@yahoo.com,"05-02-2019 09:46",payment-success
75,www,166,#SB100166,Ardi_yantosi@yahoo.co.id,"05-02-2019 08:20",payment-success
76,www,165,#SB100165,sumarditanjung@yahoo.co.id,"05-02-2019 08:07",payment-success
77,www,164,#SB100164,rizkyaulia1919@gmail.com,"04-02-2019 18:48",payment-success
78,www,163,#SB100163,bigsolon0808@gmail.com,"04-02-2019 17:46",payment-success
79,www,162,#SB100162,nguraharya582@gmail.com,"04-02-2019 14:42",payment-success
80,www,161,#SB100161,chandrapanto86@gmail.com,"04-02-2019 10:20",payment-success
81,www,160,#SB100160,Bayhoki@gmail.com,"04-02-2019 02:23",payment-success
82,www,159,#SB100159,cwijaya233@gmail.com,"04-02-2019 00:14",payment-success
83,www,158,#SB100158,abangmirza71@gmail.com,"03-02-2019 21:46",payment-success
84,www,157,#SB100157,sudirmanrsn@gmail.com,"03-02-2019 16:48",payment-success
85,www,156,#SB100156,sudirmanrsn@gmail.com,"03-02-2019 13:39",payment-success
86,www,155,#SB100155,herwinhou@gmail.com,"03-02-2019 13:17",payment-success
87,www,154,#SB100154,djulkifli.djulkifli01@gmail.com,"03-02-2019 12:54",payment-success
88,www,153,#SB100153,Haryonosapii1304@gmail.com,"03-02-2019 07:29",payment-success
89,www,152,#SB100152,Nugrahaspddendy@gmail.com,"02-02-2019 21:19",payment-success
90,www,151,#SB100151,udinheang.hino@gmail.com,"02-02-2019 19:01",payment-success
91,www,150,#SB100150,ivo.viga.iv@gmail.com,"02-02-2019 18:37",payment-success
92,www,149,#SB100149,puturoly@gmail.com,"02-02-2019 13:19",payment-success
93,www,148,#SB100148,ahmadzoulkifli023@gmail.com,"02-02-2019 02:12",payment-success
94,www,147,#SB100147,akmalkurniawan095@gmail.com,"02-02-2019 01:00",payment-success
95,www,146,#SB100146,Hasbitkj7@gmail.com,"01-02-2019 21:58",payment-success
96,www,145,#SB100145,christian.sampaleng060995@gmail.com,"01-02-2019 21:04",payment-success
97,www,144,#SB100144,Normannikodemus77@gmail.com,"01-02-2019 19:14",payment-success
98,www,143,#SB100143,Daniumar415@gmail.com,"01-02-2019 17:55",payment-success
99,www,142,#SB100142,Adityaputraa.a@gmail.com,"01-02-2019 13:36",payment-success
100,www,141,#SB100141,Miamardison3@gmail.com,"01-02-2019 11:30",payment-success
101,www,140,#SB100140,muh.subri96@gmail.com,"01-02-2019 02:36",payment-success
102,www,139,#SB100139,jerrydepari96@gmail.com,"31-01-2019 23:05",wait-payment
103,www,138,#SB100138,akmalkurniawan095@gmail.com,"31-01-2019 19:30",wait-payment
104,www,137,#SB100137,sudarmin76@yahoo.co.id,"31-01-2019 16:11",wait-payment
105,www,136,#SB100136,Kardi3888@gmail.com,"31-01-2019 12:12",wait-payment
106,www,135,#SB100135,nico.ramon81@gmail.com,"31-01-2019 03:17",wait-payment
107,www,134,#SB100134,yuniar28@gmail.com,"30-01-2019 22:40",wait-payment
108,www,133,#SB100133,nv3ani.0611@gmail.com,"30-01-2019 20:07",wait-payment
109,www,132,#SB100132,Sutomoatmaja@yahoo.com,"30-01-2019 19:56",wait-payment
110,www,131,#SB100131,fadlyfaldy77@gmail.com,"30-01-2019 19:28",wait-payment
111,www,130,#SB100130,efndra@gmail.com,"30-01-2019 14:22",wait-payment
112,www,129,#SB100129,Goeykoji@yahoo.com,"30-01-2019 09:41",wait-payment
113,www,128,#SB100128,rizalriand@gmail.com,"30-01-2019 09:24",wait-payment
114,www,127,#SB100127,bakmijawabayu.magelang@gmail.com,"30-01-2019 00:00",wait-payment
115,www,126,#SB100126,WE-elinno@yaho.com,"29-01-2019 21:54",wait-payment
116,www,125,#SB100125,rasyid.ramadhan01@gmail.com,"29-01-2019 18:35",wait-payment
117,www,124,#SB100124,endangirawaty@yahoo.com,"29-01-2019 18:30",wait-payment
118,www,123,#SB100123,Budihandokopurbalingga@gmail.com,"29-01-2019 18:18",wait-payment
119,www,122,#SB100122,awnk_tea@yahoo.com,"29-01-2019 15:56",wait-payment
120,www,121,#SB100121,ricky.mendrova@yahoo.co.id,"29-01-2019 15:02",wait-payment
121,www,120,#SB100120,dims.prasetya@gmail.com,"29-01-2019 13:56",wait-payment
122,www,119,#SB100119,dims.prasetya@gmail.com,"29-01-2019 13:54",wait-payment
123,www,118,#SB100118,sasa@gmail.com,"29-01-2019 11:32",wait-payment
124,www,117,#SB100117,Danirahman333@gmail.com,"29-01-2019 11:23",wait-payment
125,www,116,#SB100116,Alabdul.latif1986@gmail.com,"29-01-2019 11:15",wait-payment
126,www,115,#SB100115,Rudy29salim@gmail.com,"29-01-2019 07:56",wait-payment
127,www,114,#SB100114,fadilmuhammad1933@gmail.com,"29-01-2019 04:06",wait-payment
128,www,113,#SB100113,mchattab@yahoo.com,"29-01-2019 00:30",wait-payment
129,www,112,#SB100112,cwijaya233@gmail.com,"28-01-2019 22:11",wait-payment
130,www,111,#SB100111,devitrk915@gmail.com,"28-01-2019 20:15",wait-payment
131,www,110,#SB100110,Selvennylisan@gmail.com,"28-01-2019 11:18",wait-payment
132,www,109,#SB100109,putribrilliantin@ymail.com,"28-01-2019 10:28",wait-payment
133,www,108,#SB100108,teja140186@gmail.com,"28-01-2019 08:45",wait-payment
134,www,107,#SB100107,ktl_ibrahim@yahoo.com,"28-01-2019 08:41",wait-payment
135,www,106,#SB100106,yudiirwansyahtoha@gmail.com,"27-01-2019 15:26",wait-payment
136,www,105,#SB100105,Tsaqilahalimah@gmail.com,"27-01-2019 14:08",wait-payment
137,www,104,#SB100104,project5depok@gmail.com,"27-01-2019 08:15",payment-success
138,www,103,#SB100103,jibunkatu@gmail.com,"26-01-2019 16:22",wait-payment
139,www,102,#SB100102,Owner.bajoe@gmail.com,"26-01-2019 10:40",wait-payment
140,www,101,#SB100101,mateipangalasen@gmail.com,"25-01-2019 21:16",wait-payment
141,www,100,#SB100100,foremanhutasoit@gmail.com,"25-01-2019 16:04",wait-payment
142,www,99,#SB100099,Hendriwikaya778@gmail.com,"25-01-2019 14:41",wait-payment
143,www,98,#SB100098,wirantonoagus@yahoo.com,"25-01-2019 13:15",wait-payment
144,www,97,#SB100097,andimangunsong666@gmail.com,"25-01-2019 11:32",wait-payment
145,www,96,#SB100096,bayurahmawijaya@gmail.com,"25-01-2019 10:34",wait-payment
146,www,95,#SB100095,enolengko@gmail.com,"25-01-2019 07:25",wait-payment
147,www,94,#SB100094,rohmatkholis.01@gmail.com,"25-01-2019 07:25",wait-payment
148,www,93,#SB100093,abuzed@istiqamah.id,"25-01-2019 04:34",wait-payment
149,www,92,#SB100092,Hanicaayunia1@gmail.com,"24-01-2019 20:45",wait-payment
150,www,91,#SB100091,Baharudin1519@gmail.com,"24-01-2019 19:06",wait-payment
151,www,90,#SB100090,test@yahoo.com,"24-01-2019 18:31",wait-payment
152,www,89,#SB100089,wds@gmail.com,"24-01-2019 16:14",wait-payment
153,www,88,#SB100088,yohanesmozartligouw@yahoo.co.id,"24-01-2019 14:11",wait-payment
154,www,87,#SB100087,Kadek.sidii@gmail.com,"24-01-2019 11:28",wait-payment
155,www,86,#SB100086,chorez_vhier85@yahoo.com,"24-01-2019 10:38",wait-payment
156,www,85,#SB100085,abdulazizoase@gmail.com,"23-01-2019 19:11",wait-payment
157,www,84,#SB100084,testus@yahoo.com,"23-01-2019 16:58",wait-payment
158,www,83,#SB100083,test@yahoo.com,"23-01-2019 16:54",wait-payment
159,www,82,#SB100082,michael_hadiyanto@yahoo.com,"22-01-2019 15:05",wait-payment
160,www,81,#SB100081,Ofik186lh@gmail.com,"22-01-2019 13:08",wait-payment
161,www,80,#SB100080,Fauzidrt15@gmail.com,"22-01-2019 12:24",wait-payment
162,www,79,#SB100079,Imronmanwar19@gmail.com,"21-01-2019 23:17",wait-payment
163,www,78,#SB100078,Syela.mantiri@yahoo.com,"21-01-2019 19:54",wait-payment
164,www,77,#SB100077,Zhaid02.mmm@gmail.com,"21-01-2019 18:12",wait-payment
165,www,76,#SB100076,They.qni01@gmail.com,"21-01-2019 16:06",wait-payment
166,www,75,#SB100075,furqonnuzulul24@gmail.com,"21-01-2019 10:56",wait-payment
167,www,74,#SB100074,Benyamin.kurniawan@gmail.com,"21-01-2019 06:54",wait-payment
